<?xml version="1.0" encoding="utf-8"?>
<!-- Generator: Adobe Illustrator 21.0.2, SVG Export Plug-In . SVG Version: 6.00 Build 0)  -->
<svg version="1.1" id="Vrstva_1" xmlns="http://www.w3.org/2000/svg" xmlns:xlink="http://www.w3.org/1999/xlink" x="0px" y="0px"
	 viewBox="0 0 100 100" style="enable-background:new 0 0 100 100;" xml:space="preserve">
<style type="text/css">
.zar2{fill-rule:evenodd;clip-rule:evenodd;fill:#000;}
</style>
<g>
	<path class="zar2" d="M18.1,48.4c-0.1,0-0.2,0-0.3,0c-0.2,0-0.4,0.1-0.7,0.2c-0.7,0.3-1.4,0.7-2.1,1c-0.7,0.3-1.5,0.5-2.2,0.8
		c-0.7,0.3-1.5,0.5-2.2,0.7c-0.7,0.2-1.1,0.9-0.9,1.6c0.2,0.7,0.9,1.1,1.6,0.9c0.9-0.3,1.9-0.6,2.8-0.9c0.4-0.1,0.7-0.3,1.1-0.4
		c1.1-0.4,2.2-1,3.3-1.5c0.3-0.1,0.5-0.5,0.6-0.8c0.1-0.3,0-0.7-0.1-1C18.7,48.7,18.4,48.5,18.1,48.4z"/>
	<path class="zar2"  d="M12.8,29.2c0.3,0.1,0.7,0.1,1,0.2c0.5,0.2,1,0.4,1.5,0.5c0.7,0.2,1.4-0.3,1.6-0.9c0.1-0.3,0-0.7-0.1-1
		c-0.2-0.3-0.4-0.5-0.8-0.6c-0.8-0.3-1.5-0.6-2.3-0.7c-0.6-0.1-1.2-0.2-1.8-0.2c-0.8-0.1-1.5-0.1-2.3-0.2c0,0,0,0-0.1,0
		c-0.7,0-1.2,0.7-1.2,1.3c0,0.3,0.1,0.7,0.4,0.9C9,28.9,9.3,29,9.6,29C10.7,29.1,11.8,29.1,12.8,29.2z"/>
	<path  class="zar2" d="M21.9,9.2c-0.5-0.3-1-0.5-1.5-0.7c-0.4-0.2-0.8-0.4-1.2-0.6c-0.2-0.1-0.4-0.2-0.7-0.2c-0.1,0-0.2,0-0.3,0
		c-0.3,0.1-0.6,0.3-0.8,0.6c-0.3,0.6-0.2,1.4,0.5,1.8c0.4,0.2,0.8,0.4,1.2,0.6c0.3,0.1,0.5,0.2,0.8,0.4c0.4,0.2,0.7,0.4,1.1,0.6
		c1,0.8,1.8,1.8,2.7,2.7c0.5,0.5,1.3,0.5,1.8,0c0.5-0.5,0.5-1.3,0-1.8C24.4,11.4,23.3,10.1,21.9,9.2z"/>
	<path class="zar2"  d="M80.8,14.1c0.6-0.4,1.1-0.9,1.7-1.3c0.2-0.2,0.5-0.3,0.7-0.5c0.2-0.2,0.4-0.4,0.6-0.6c0.2-0.2,0.3-0.4,0.5-0.5
		c0.4-0.4,0.7-0.8,1-1.3c0.1-0.1,0.1-0.2,0.2-0.3c0.1-0.2,0.2-0.4,0.2-0.7c0-0.3-0.1-0.7-0.4-0.9c-0.2-0.2-0.6-0.4-0.9-0.4
		c-0.3,0-0.7,0.1-0.9,0.4c-0.6,0.8-1.3,1.7-2.1,2.4c-0.8,0.6-1.6,1.2-2.4,1.9c-0.3,0.2-0.4,0.6-0.4,0.9c0,0.3,0.1,0.7,0.4,0.9
		c0.2,0.2,0.6,0.4,0.9,0.4c0.1,0,0.2,0,0.3,0C80.4,14.4,80.6,14.3,80.8,14.1z"/>
	<path class="zar2"  d="M92.7,29.5c-0.2-0.6-0.7-0.9-1.3-0.9c-0.1,0-0.2,0-0.3,0c-0.7,0.2-1.4,0.4-2.1,0.6c-0.3,0.1-0.5,0.1-0.8,0.2
		c-0.7,0.2-1.4,0.3-2.2,0.5c-0.7,0.2-1.1,0.9-0.9,1.6c0.2,0.7,0.9,1.1,1.6,0.9c0.7-0.2,1.4-0.3,2.1-0.5c0.3-0.1,0.6-0.2,0.8-0.2
		c0.7-0.2,1.4-0.4,2.1-0.6C92.5,30.9,92.9,30.2,92.7,29.5z"/>
	<path class="zar2"  d="M85.5,54.4c-0.2-0.2-0.4-0.4-0.6-0.6c-0.1-0.1-0.2-0.2-0.4-0.4c-0.7-0.6-1.4-1.2-2.1-1.8c-0.3-0.2-0.6-0.4-0.9-0.4
		c-0.3,0-0.7,0.1-0.9,0.4c-0.5,0.5-0.5,1.4,0,1.8c0.5,0.5,1.1,1,1.6,1.4c0.6,0.5,1.3,1.1,1.8,1.7c0.4,0.5,0.7,1.1,1.1,1.6
		c0.2,0.3,0.4,0.5,0.8,0.6c0.3,0.1,0.7,0,1-0.1c0.3-0.2,0.5-0.4,0.6-0.8c0.1-0.3,0.1-0.7-0.1-1C86.7,56.1,86.2,55.2,85.5,54.4z"/>
	<path class="zar2"  d="M76.3,36c0-0.6-0.1-1.2-0.2-1.8c0-0.4-0.1-0.7-0.2-1.1c-0.1-0.3-0.1-0.7-0.2-1c-0.1-0.6-0.3-1.3-0.5-1.9
		c-0.3-0.7-0.6-1.3-0.9-1.9c-0.4-0.6-0.7-1.1-1.1-1.7c-0.4-0.6-0.8-1.1-1.2-1.7c-0.4-0.6-0.9-1.2-1.4-1.7c-0.5-0.4-0.9-0.8-1.4-1.2
		c-0.6-0.5-1.1-0.9-1.7-1.4c-0.5-0.4-1-0.7-1.5-1c-0.6-0.4-1.3-0.7-2-0.9c-0.3-0.1-0.6-0.2-0.9-0.4c-0.3-0.1-0.6-0.2-0.9-0.3
		c-0.6-0.2-1.2-0.4-1.8-0.5c-1.4-0.3-2.8-0.6-4.2-0.6c-0.4,0-0.9,0-1.3,0c-0.9,0-1.7,0-2.6,0c-1.3,0-2.6,0-3.8,0.1
		c-0.8,0.1-1.5,0.3-2.2,0.5c-0.6,0.1-1.3,0.2-1.9,0.4c-0.6,0.2-1.3,0.5-1.9,0.7c-0.3,0.1-0.6,0.2-0.9,0.3c-0.4,0.2-0.8,0.3-1.2,0.5
		c-0.6,0.3-1.1,0.6-1.7,0.9c-0.6,0.4-1.2,0.7-1.7,1.1c-0.4,0.3-0.8,0.6-1.1,0.9c-0.5,0.4-1.1,0.8-1.6,1.2c-0.5,0.4-1,0.9-1.4,1.4
		c-1,1.1-2.1,2.3-3,3.5c-0.3,0.3-0.5,0.8-0.7,1.1c-0.2,0.3-0.3,0.6-0.5,0.9c-0.3,0.7-0.6,1.4-0.8,2.1c-0.1,0.3-0.2,0.6-0.3,0.9
		c-0.1,0.3-0.3,0.6-0.4,1c-0.1,0.3-0.2,0.6-0.3,0.9c-0.1,0.3-0.2,0.7-0.3,1c-0.1,0.6-0.2,1.2-0.3,1.8c-0.1,0.5-0.1,1-0.1,1.5
		c0,1,0.1,2.1,0.3,3.1c0.1,0.7,0.1,1.4,0.3,2.1c0.1,0.3,0.2,0.6,0.2,0.9c0.1,0.6,0.4,1.1,0.6,1.7c0.2,0.5,0.4,1,0.6,1.5
		c0.2,0.3,0.3,0.6,0.5,0.9c0.3,0.5,0.7,1,1.1,1.5c0.6,0.8,1.2,1.6,2,2.3c0.4,0.4,0.9,0.7,1.4,1.1c0.4,0.3,0.9,0.6,1.3,0.9
		c0.4,0.3,0.8,0.5,1.2,0.7c0.4,0.2,0.8,0.5,1.2,0.7c0.4,0.2,0.8,0.4,1.2,0.6c0.2,0.1,0.3,0.2,0.5,0.3c0.2,0.1,0.4,0.2,0.6,0.4
		c0.1,0.1,0.2,0.2,0.3,0.3c0,0.1,0.1,0.1,0.1,0.2c0.1,0.4,0.2,0.8,0.3,1.3c0,0.2,0.1,0.4,0.1,0.6c0,0.4,0.1,0.7,0,1.1
		c0,0.3-0.1,0.6-0.2,0.9c0,0,0,0,0,0c-0.2,0.1-0.4,0.1-0.6,0.3c-0.2,0.1-0.5,0.3-0.6,0.6c-0.1,0.3-0.2,0.4-0.2,0.7
		c0,0.2,0,0.4,0.1,0.5c0.1,0.4,0.3,0.7,0.6,1c0.2,0.2,0.3,0.3,0.5,0.4c0.1,0.1,0.2,0.1,0.3,0.1c0,0.4,0,0.7,0,1.1
		c0,0.3,0,0.5,0.1,0.8c0,0.3,0,0.6,0,1c0,1.2,0.1,2.3,0.1,3.5c0,0.3,0,0.6,0,0.9c0,0,0,0,0,0c0,0.2-0.1,0.4,0,0.5
		c0,0.7-0.1,1.4-0.1,2.2c0,1.2-0.1,2.4-0.2,3.5c0,0.4-0.1,0.9-0.1,1.3c-0.1,0.5-0.2,1-0.2,1.5c0,0.3,0,0.6,0.1,0.8
		c0,0.1,0.1,0.3,0.2,0.4c0.1,0.2,0.3,0.4,0.5,0.5c0.1,0.1,0.3,0.2,0.5,0.2c0.1,0.1,0.3,0.1,0.4,0.2c0.6,0.3,1.1,0.6,1.7,0.8
		c0.3,0.1,0.6,0.2,0.8,0.2c0,0.1,0,0.2,0,0.2c0,0.4,0.1,0.8,0.1,1.3c0.1,0.4,0.2,0.7,0.4,1c0.1,0.2,0.2,0.5,0.4,0.7
		c0.3,0.4,0.7,0.7,1,1c0.5,0.4,1.1,0.7,1.8,1c0.6,0.3,1.4,0.4,2.1,0.5c-0.1,0-0.2,0-0.3,0c0.2,0,0.5,0.1,0.7,0.1
		c0.3,0.1,0.7,0.1,1,0.1c0.5,0.1,1,0.1,1.6,0.1c0.5,0,1.1,0,1.6,0c0.5,0,1-0.1,1.6-0.2c0.7-0.1,1.3-0.1,2-0.3c0.4-0.1,0.7-0.1,1-0.2
		c0.3-0.1,0.7-0.2,1-0.4c0.2-0.1,0.5-0.2,0.7-0.3c0.2-0.1,0.4-0.2,0.5-0.4c0.2-0.1,0.4-0.3,0.6-0.5c0.2-0.3,0.4-0.5,0.6-0.9
		c0.2-0.3,0.3-0.7,0.5-1c0.1-0.2,0.2-0.3,0.2-0.5c0.1-0.3,0.1-0.5,0.1-0.8c0.3-0.1,0.6-0.2,0.9-0.3c0.3-0.1,0.5-0.2,0.8-0.3
		c0.3-0.1,0.6-0.2,0.9-0.4c0.2-0.1,0.4-0.3,0.6-0.4c0.1-0.1,0.2-0.2,0.3-0.4c0.1-0.1,0.1-0.3,0.2-0.4c0.2-0.4,0.2-0.8,0.2-1.2
		c0-0.3,0-0.5,0.1-0.8c0-0.6,0.1-1.2,0.1-1.8c0-0.6,0-1.2,0-1.9c0-1,0-1.9,0-2.9c0-0.4,0-0.9,0-1.3c0.1-0.3,0.1-0.6,0-0.8
		c0-0.3,0-0.5,0-0.8c0-0.5,0-1,0-1.5c0-0.5,0-0.9,0-1.4c0-0.1,0-0.3,0-0.4c0,0,0,0,0,0c0-0.5,0-0.9,0-1.4c0-0.4-0.1-0.9-0.1-1.3
		c0-0.1,0-0.2,0-0.3c0.2-0.2,0.3-0.3,0.5-0.5c0.1-0.2,0.2-0.4,0.2-0.5c0-0.1,0.1-0.4,0.1-0.5c0-0.4-0.1-0.9-0.3-1.2
		c-0.2-0.3-0.5-0.6-0.8-0.8c-0.4-0.3-0.8-0.3-1.2-0.5c-0.2-0.1-0.4-0.1-0.6-0.1c0-0.2,0-0.5,0-0.7c0-0.4-0.1-0.8-0.1-1.3
		c0-0.7,0-1.5,0.1-2.2c0.1-0.3,0.2-0.6,0.3-0.8c0-0.1,0.1-0.2,0.1-0.2c0.1-0.1,0.2-0.2,0.3-0.4c0.1-0.1,0.3-0.1,0.4-0.2
		c0.2-0.1,0.4-0.2,0.6-0.3c0.4-0.2,0.7-0.4,1.1-0.6c0.2-0.1,0.4-0.2,0.6-0.3c0.2-0.1,0.3-0.1,0.5-0.2c0.3-0.1,0.5-0.3,0.7-0.5
		c0.4-0.3,0.7-0.6,1-1c0.3-0.3,0.6-0.6,0.9-0.8c0.3-0.3,0.7-0.6,1-0.9c0.4-0.4,0.7-0.9,1.1-1.3c0.3-0.4,0.6-0.9,0.8-1.4
		c0.1-0.3,0.3-0.5,0.4-0.8c0.1-0.3,0.3-0.5,0.4-0.8c0.1-0.3,0.3-0.5,0.4-0.8c0.1-0.3,0.3-0.5,0.4-0.8c0.3-0.6,0.5-1.2,0.7-1.8
		c0.1-0.3,0.2-0.6,0.3-0.9c0.1-0.4,0.1-0.8,0.2-1.2c0-0.3,0.1-0.5,0.1-0.8c0.1-0.5,0.1-0.9,0.1-1.4c0-0.6,0-1.2,0-1.7
		C76.4,37.3,76.4,36.7,76.3,36z M44.4,83.6c-0.2-0.1-0.5-0.2-0.7-0.2c-0.2-0.1-0.4-0.2-0.6-0.3c-0.3-0.2-0.7-0.3-1-0.4
		c0.1,0,0.2,0.1,0.3,0.1c-0.1-0.1-0.2-0.1-0.4-0.2c0,0,0,0,0,0c0-0.3,0-0.7,0-1c0-0.2,0-0.4,0-0.6c0.1,0,0.1,0,0.2,0.1
		c0.3,0.1,0.6,0.1,0.9,0.2c0.6,0.2,1.3,0.3,1.9,0.5c0.6,0.2,1.2,0.3,1.8,0.5c0.3,0.1,0.6,0.2,0.9,0.3c0.3,0.1,0.5,0.2,0.8,0.3
		c0.6,0.2,1.2,0.4,1.8,0.5c0.6,0.2,1.3,0.3,1.9,0.5c0.6,0.1,1.2,0.3,1.8,0.4c0.3,0.1,0.6,0.1,0.8,0.1c0.3,0.1,0.6,0.1,0.9,0.2
		c0,0,0,0-0.1,0c-0.9,0.1-1.8,0-2.8,0c-0.9,0-1.8-0.1-2.7-0.1c-0.9,0-1.8-0.1-2.7-0.2c-0.7-0.1-1.4-0.3-2.1-0.4
		C45,83.8,44.7,83.7,44.4,83.6z M59.3,87.6c-0.1,0.1-0.1,0.1-0.2,0.2c-0.1,0.1-0.2,0.1-0.3,0.2c-0.2,0.1-0.3,0.2-0.5,0.2
		c0,0-0.1,0-0.1,0c-0.7,0.3-1.4,0.4-2.2,0.5c-0.4,0.1-0.9,0.1-1.3,0.2c0.1,0,0.2,0,0.3,0c-0.4,0-0.9,0.1-1.3,0.1c-0.4,0-0.8,0-1.3,0
		c-0.4,0-0.8,0-1.2,0c-0.3,0-0.6,0-0.9-0.1c-0.4-0.1-0.8-0.1-1.3-0.2c0.1,0,0.2,0,0.3,0c-0.3,0-0.5-0.1-0.8-0.2
		c-0.2-0.1-0.4-0.1-0.6-0.2c-0.4-0.2-0.9-0.5-1.3-0.7c-0.1-0.1-0.2-0.1-0.2-0.2c-0.1-0.1-0.2-0.3-0.2-0.5c-0.1-0.2-0.1-0.4-0.2-0.6
		c0.3,0.1,0.7,0.2,1,0.2c0.5,0.1,1,0.1,1.5,0.2c1.2,0.1,2.4,0.1,3.6,0.2c1.2,0.1,2.4,0.1,3.6,0c1.3-0.1,2.7-0.2,4-0.4c0,0,0,0,0,0
		C59.5,87,59.4,87.3,59.3,87.6z M63.9,82.6c0,0.1,0,0.2-0.1,0.3c-0.3,0.1-0.6,0.2-0.8,0.3c-0.2,0.1-0.4,0.1-0.6,0.2
		c-0.1,0-0.2,0.1-0.3,0.1c-0.1-0.1-0.3-0.2-0.5-0.3c-0.6-0.1-1.1-0.2-1.7-0.4c-0.6-0.1-1.1-0.3-1.7-0.4c-0.3-0.1-0.6-0.1-0.9-0.2
		c-0.3-0.1-0.6-0.1-1-0.2c-0.3-0.1-0.6-0.1-0.9-0.2c-0.3-0.1-0.6-0.1-0.9-0.2c-0.6-0.1-1.2-0.3-1.8-0.4c-0.7-0.1-1.3-0.3-2-0.5
		c-0.6-0.2-1.2-0.3-1.7-0.5c-0.3-0.1-0.6-0.2-0.9-0.3c-0.3-0.1-0.6-0.2-0.8-0.3c-0.9-0.3-1.8-0.5-2.7-0.8c-0.4-0.1-0.9-0.2-1.3-0.3
		c-0.2-0.1-0.4-0.1-0.7-0.2c-0.2-0.1-0.5-0.2-0.7-0.3c0-0.3,0-0.7,0-1c0-0.6,0-1.2,0-1.8c0,0,0,0,0,0c0.3,0.1,0.5,0.1,0.8,0.2
		c0.3,0.1,0.6,0.2,0.9,0.3c0.3,0.1,0.7,0.1,1,0.2c0.6,0.2,1.3,0.3,1.9,0.5c0.6,0.2,1.2,0.3,1.7,0.5c0.6,0.2,1.2,0.4,1.8,0.6
		c0.6,0.2,1.3,0.3,1.9,0.4c1.2,0.2,2.5,0.4,3.8,0.7c0.3,0.1,0.6,0.1,1,0.2c0.3,0,0.6,0.1,0.9,0.2c0.3,0.1,0.7,0.2,1,0.2
		c0.3,0.1,0.7,0.1,1,0.2c0.6,0.2,1.2,0.3,1.8,0.5c0.6,0.2,1.1,0.4,1.7,0.6c0.1,0,0.2,0.1,0.3,0.1c0.2,0.1,0.4,0.2,0.6,0.2
		C64,81.5,63.9,82.1,63.9,82.6z M63.9,74.6C63.9,74.6,64,74.6,63.9,74.6c0,0.4,0,0.7,0.1,1.1c0,0.8,0,1.7,0,2.5
		c-0.4-0.2-0.8-0.3-1.2-0.5c-0.6-0.2-1.2-0.4-1.8-0.5c-0.6-0.2-1.3-0.3-1.9-0.5c-0.6-0.1-1.2-0.3-1.9-0.4c-0.3-0.1-0.6-0.1-0.9-0.1
		c-0.3-0.1-0.7-0.1-1-0.2c-0.6-0.1-1.2-0.2-1.8-0.3c-1.2-0.2-2.5-0.4-3.7-0.8c-0.6-0.2-1.3-0.4-1.9-0.6c-0.7-0.2-1.5-0.4-2.2-0.6
		c-0.7-0.2-1.4-0.4-2.1-0.6c-0.3-0.1-0.6-0.2-0.9-0.2c-0.2,0-0.4-0.1-0.7-0.1c0-0.3,0-0.6,0.1-1c0-0.5,0-1,0-1.6
		c0.1,0,0.3,0.1,0.4,0.1c0.3,0.1,0.5,0.1,0.8,0.2c0.6,0.1,1.2,0.2,1.8,0.3c0.6,0.1,1.2,0.2,1.8,0.3c0.6,0.1,1.2,0.3,1.7,0.4
		c0.6,0.1,1.1,0.2,1.7,0.4c0.6,0.1,1.1,0.2,1.7,0.3c0.6,0.1,1.2,0.2,1.7,0.3c0.6,0.1,1.3,0.2,1.9,0.3c0.8,0.1,1.5,0.3,2.3,0.4
		c0.8,0.2,1.6,0.3,2.4,0.5c0.4,0.1,0.8,0.2,1.2,0.3c0.4,0.1,0.8,0.2,1.1,0.3C63.2,74.5,63.6,74.5,63.9,74.6z M63.9,69.2
		C63.9,69.2,63.9,69.2,63.9,69.2c0,0.4,0,0.9,0,1.4c0,0.5,0,0.9,0,1.4c-0.1,0-0.3-0.1-0.4-0.1c-0.4-0.1-0.9-0.2-1.3-0.3
		c-0.5-0.1-0.9-0.3-1.4-0.4c-0.9-0.2-1.9-0.4-2.8-0.6c-0.9-0.2-1.9-0.3-2.8-0.4c-1-0.2-2-0.3-3-0.5c-1.1-0.2-2.1-0.4-3.2-0.7
		c-1-0.3-2-0.5-3-0.6c-0.6-0.1-1.1-0.2-1.7-0.3c-0.5-0.1-1.1-0.2-1.6-0.4c0,0-0.1,0-0.1-0.1c-0.1-0.1-0.2-0.1-0.3-0.1
		c0-0.2,0-0.3,0-0.5c0-0.1,0-0.2,0-0.3c0.4,0,0.9,0,1.3,0.1c0.4,0.1,0.8,0.1,1.2,0.2c0.3,0,0.6,0.1,0.9,0.1c0.3,0,0.6,0,0.9,0
		c0.6,0,1.3,0,1.9,0c1.2,0,2.4,0,3.6,0c2.5,0,5,0,7.5,0c0.6,0,1.3,0,1.9,0c0.6,0,1.2-0.1,1.8-0.1c0,0,0.1,0,0.1,0c0,0,0,0.1,0,0.1
		c0,0,0-0.1,0-0.1c0,0,0,0,0,0c0.1,0.6,0.2,1.1,0.3,1.7C63.8,68.9,63.8,69.1,63.9,69.2z M67.4,43.9c-1.2,0-2.4,0-3.7,0
		c-0.2,0.4-0.3,0.9-0.5,1.3c-0.2,0.6-0.4,1.2-0.7,1.9c-0.2,0.6-0.4,1.2-0.7,1.8c-0.2,0.7-0.5,1.3-0.7,2c-0.2,0.7-0.4,1.3-0.5,2
		c-0.1,0.3-0.2,0.6-0.3,1c-0.1,0.3-0.1,0.6-0.2,0.8c-0.1,0.7-0.3,1.4-0.4,2c-0.1,0.4-0.2,0.7-0.2,1.1c-0.1,0.3-0.1,0.6-0.2,0.9
		c-0.1,0.6-0.2,1.2-0.3,1.8C59.1,61,59,61.5,59,62l-2.6,0c0.1-0.9,0.2-1.7,0.3-2.6c0.1-0.6,0.2-1.3,0.3-1.9c0.1-0.6,0.3-1.2,0.4-1.8
		c0.1-0.6,0.3-1.3,0.4-1.9c0.1-0.6,0.3-1.2,0.5-1.9c0.2-0.7,0.3-1.3,0.5-2c0.2-0.7,0.5-1.3,0.7-2c0.2-0.6,0.5-1.2,0.7-1.8
		c0.2-0.6,0.4-1.2,0.7-1.9c0.1-0.2,0.1-0.3,0.2-0.5c-0.1,0-0.2,0-0.3,0c-0.7,0-1.5-0.1-2.2-0.2c-0.4,0-0.7-0.1-1.1-0.2
		c-0.1,0-0.2,0-0.4-0.1c-0.1,0-0.3,0-0.4-0.1c-0.2,0-0.3-0.1-0.5-0.2c-0.8-0.3-1.1-1.2-1.4-1.9c-0.2-0.6-0.3-1.1-0.4-1.7
		c0-0.1,0-0.1-0.1-0.2c0,0,0,0,0,0.1c-0.1,0.6-0.3,1.3-0.4,1.9c-0.2,0.7-0.4,1.3-0.5,2c-0.1,0.6-0.3,1.2-0.5,1.9
		c-0.1,0.4-0.2,0.7-0.3,1.1c0,0.2-0.1,0.5-0.1,0.7c0,0.2-0.1,0.4-0.2,0.6c-0.1,0.2-0.3,0.4-0.6,0.5c-0.5,0.3-1.3,0.2-1.7-0.3
		c-0.2-0.2-0.4-0.5-0.5-0.7c-0.2-0.4-0.3-0.7-0.5-1.1c-0.2-0.6-0.4-1.2-0.6-1.8c-0.2-0.6-0.4-1.3-0.5-1.9c-0.1-0.3-0.1-0.5-0.2-0.8
		c0,0,0,0.1,0,0.1c0,0.2-0.1,0.4-0.2,0.6c-0.1,0.2-0.2,0.5-0.3,0.7c0,0.1-0.1,0.2-0.2,0.3c-0.1,0.2-0.3,0.4-0.4,0.5
		c-0.2,0.2-0.4,0.3-0.7,0.4c-0.2,0.1-0.4,0-0.7,0c-0.2,0-0.5,0-0.7,0c-0.5,0-1,0-1.6,0c-0.2,0-0.4,0-0.7,0c0.1,0.2,0.2,0.4,0.2,0.7
		c0.1,0.4,0.3,0.9,0.4,1.3c0.1,0.4,0.3,0.8,0.4,1.2c0.1,0.6,0.3,1.3,0.5,1.9c0.2,0.6,0.3,1.3,0.5,1.9c0.1,0.4,0.2,0.7,0.3,1.1
		c0.1,0.3,0.2,0.6,0.3,0.9c0.2,0.7,0.4,1.3,0.6,2c0.2,0.7,0.4,1.3,0.6,2c0.1,0.3,0.1,0.7,0.2,1c0.1,0.3,0.1,0.7,0.2,1
		c0.1,0.7,0.2,1.4,0.3,2.2c0,0.3,0,0.7,0,1l-2.6,0c0-0.1,0-0.2,0-0.4c0-0.4,0-0.8,0-1.1c-0.1-0.8-0.3-1.5-0.4-2.3
		c-0.1-0.4-0.2-0.7-0.3-1.1c-0.1-0.3-0.2-0.6-0.3-0.9c-0.2-0.6-0.4-1.3-0.5-1.9c-0.2-0.7-0.4-1.3-0.6-2c-0.2-0.6-0.3-1.3-0.5-1.9
		c-0.2-0.6-0.4-1.3-0.5-1.9c-0.1-0.3-0.1-0.6-0.2-1c-0.1-0.3-0.2-0.6-0.3-0.9c-0.2-0.6-0.4-1.2-0.6-1.8c-0.1-0.3-0.2-0.7-0.3-1
		c-1.2-0.1-2.5-0.2-3.7-0.4c-0.3,0-0.6-0.3-0.8-0.6c-0.2-0.3-0.2-0.7-0.1-1c0.1-0.3,0.3-0.6,0.6-0.8c0.3-0.2,0.6-0.2,1-0.1
		c0.3,0,0.5,0.1,0.8,0.1c0.5,0.1,1.1,0.1,1.6,0.2c0.1-0.2,0.3-0.4,0.5-0.6c0.2-0.1,0.4-0.2,0.7-0.2c0.1,0,0.2,0,0.3,0
		c0.3,0.1,0.6,0.3,0.8,0.6c0,0.1,0.1,0.1,0.1,0.2c0,0,0.1,0,0.1,0c0.4,0,0.8,0,1.2,0c0.8,0,1.5,0,2.3,0c0.3-1,0.5-2,0.9-2.9
		c0.1-0.3,0.3-0.6,0.4-0.9c0.1-0.1,0.1-0.3,0.2-0.4c0.2-0.3,0.5-0.5,0.9-0.6c0.3-0.1,0.7-0.1,1,0.1c0.1,0.1,0.3,0.2,0.4,0.3
		c0.2,0.2,0.4,0.5,0.5,0.7c0.3,0.6,0.5,1.3,0.7,2c0.3,1.1,0.5,2.1,0.8,3.2c0,0,0,0.1,0,0.1c0.1-0.3,0.1-0.6,0.2-0.9
		c0.1-0.6,0.3-1.2,0.5-1.9c0.1-0.6,0.3-1.3,0.4-1.9c0.3-1,0.7-2.1,1.6-2.8c0.2-0.1,0.4-0.2,0.6-0.3c0.1,0,0.2,0,0.3,0
		c0.1,0,0.2,0,0.3,0c0.1,0,0.2,0.1,0.3,0.1c0.4,0.2,0.7,0.5,0.9,0.9c0.2,0.4,0.3,0.7,0.5,1.1c0.4,1.1,0.5,2.2,0.9,3.3c0,0,0,0,0,0
		c0.3,0.1,0.6,0.1,0.9,0.2c0.3,0,0.7,0.1,1,0.1c-0.1,0-0.2,0-0.3,0c0.7,0.1,1.4,0.1,2.1,0.1c0.3,0,0.6,0,0.9,0.1
		c0.2-0.5,0.4-1,0.6-1.5c0.1-0.3,0.5-0.5,0.8-0.6c0.1,0,0.2,0,0.3,0c0.2,0,0.5,0.1,0.7,0.2c0.3,0.2,0.5,0.4,0.6,0.8
		c0.1,0.4,0,0.7-0.1,1c0,0.1-0.1,0.2-0.1,0.3c0.9,0,1.8,0,2.6,0c0.7,0,1.3,0.6,1.3,1.3C68.7,43.3,68.1,43.9,67.4,43.9z"/>
</g>
</svg>
