<svg width="998" height="2048" xmlns="http://www.w3.org/2000/svg" preserveAspectRatio="xMidYMid meet">
 <g>
  <title>Layer 1</title>
  <path fill="#3651A0" d="m803,984.034424c0,6.582092 -2.424622,12.404114 -7.274536,17.467224l-338.994019,353.90387c-4.849915,5.063232 -10.426605,7.594482 -16.731445,7.594482s-11.881531,-2.53125 -16.731476,-7.594482l-338.993973,-353.90387c-4.849945,-5.06311 -7.274551,-10.885132 -7.274551,-17.467224s2.424606,-12.404175 7.274551,-17.467407l36.372742,-37.972473c4.849953,-5.063293 10.426605,-7.594543 16.731461,-7.594543s11.881516,2.53125 16.731461,7.594543l285.889786,298.463806l285.889771,-298.463806c4.849915,-5.063293 10.426636,-7.594543 16.731445,-7.594543s11.881531,2.53125 16.731506,7.594543l36.372742,37.972473c4.849915,5.063232 7.274536,10.885132 7.274536,17.467407z" id="svg_1"/>
 </g>
</svg>