<?xml version="1.0" encoding="utf-8"?>
<!-- Generator: Adobe Illustrator 21.0.2, SVG Export Plug-In . SVG Version: 6.00 Build 0)  -->
<svg version="1.1" id="Vrstva_1" xmlns="http://www.w3.org/2000/svg" xmlns:xlink="http://www.w3.org/1999/xlink" x="0px" y="0px"
	 viewBox="0 0 100 100" style="enable-background:new 0 0 100 100;" xml:space="preserve">
<style type="text/css">
	.st0{fill:#EC2027;}
</style>
<g>
	<path class="st0" d="M46.2,38.3C46.2,38.3,46.2,38.2,46.2,38.3c-0.1-0.1-0.1-0.1-0.1-0.1C46.2,38.2,46.2,38.3,46.2,38.3z"/>
</g>
<g>
	<path class="st0" d="M56.2,75.5c2-1.7,3.2-3.5,4.4-5.6c2.6-4.4,5.6-12.3-2.1-25.3c0.1,5.9-3.3,11.3-5.1,13.8
		c1.9-4.3,2.6-7.2,2.8-8.7c0.8-4.4,0.1-15.5-6.7-23.8c0.9,2.2,1.1,4.5,0.7,6.9c0.4-2.8-6.5-16.8-15.2-21c8.7,13.4,0.8,23.1-0.5,26.3
		c-1,2.6-0.9,6.1-0.2,8.2c-1.1-3.2-1.7-6.9-6.1-8.2c1.9,1.7,2.3,3.6,2.5,5.3c0.5,3.4-1.5,6.4-4.6,9.1c-2.6,2.3-5.4,6.1-4,9.8
		c-1.2-1-3.5-4.1-1.9-9.4c-1.8,2.8-2.6,6-2.6,8.9c0,2.6,0.9,5.9,2.8,8.8c-0.8-0.4-2.8-1.4-4.4-6.6c0.1,2.8,0.3,4.4,1.3,6.7
		C21.9,82.8,34,89.2,40.5,89.2h1.1c9.1-1.2,19.5-9.4,20.5-18.8C60.8,73.1,57.1,75.8,56.2,75.5z M48,85c-1.6,1.5-4.1,3.4-6.3,4.1
		h-0.3c-6.5-2.9-12.2-9.7-11.5-17.8c0.7-8.4,7-15.7,10.8-22.6c1.6-2.9,3-8.9,0.5-12.6c6.3,6.3,3.9,14.4,2.4,22.7
		c-0.4,2.4,0.2,5,1.7,6.4c-0.3-2.1,0.1-5.1,2.5-6.5c-0.8,2.4-0.6,4,0.5,6.6c1,2.3,2.6,4.3,3.5,6.7C53.4,76.7,51.9,81.3,48,85z"/>
</g>
<g>
	<path class="st0" d="M74.2,75.5c2-1.7,3.2-3.5,4.4-5.6c2.6-4.4,5.6-12.3-2.1-25.3c0.1,5.9-3.3,11.3-5.1,13.8
		c1.9-4.3,2.6-7.2,2.8-8.7c0.8-4.4,0.1-15.5-6.7-23.8c0.9,2.2,1.1,4.5,0.7,6.9c0.4-2.8-6.5-16.8-15.2-21c3,4.6,4,8.8,4,12.4
		c3.3,7.5,4.1,15.2,3.8,20.2c0.5,0.7,1.1,1.6,1.8,2.6c0.5-2,0.9-4.2,0.8-6.4c9.8,17.2,5.9,27.5,2.7,33.3c-1.5,2.8-3,5.1-5.5,7.4
		c1.2,0.5,5.8-3.1,7.5-6.7c-0.6,5.3-3.3,10.2-7,14.3c8.7-1.8,18.1-9.6,19.1-18.5C78.8,73.1,75.1,75.8,74.2,75.5z"/>
</g>
</svg>
