<?xml version="1.0" encoding="utf-8"?>
<!-- Generator: Adobe Illustrator 21.0.2, SVG Export Plug-In . SVG Version: 6.00 Build 0)  -->
<svg version="1.1" id="Vrstva_1" xmlns="http://www.w3.org/2000/svg" xmlns:xlink="http://www.w3.org/1999/xlink" x="0px" y="0px"
	 viewBox="0 0 100 100" style="enable-background:new 0 0 100 100;" xml:space="preserve">
<g>
	<path fill="#00a651" d="M88.9,54.1c0-1.6,0-3.2-0.1-4.8c-0.1-1.7-0.3-3.5-0.7-5.2c-0.2-0.8-0.4-1.6-0.6-2.4c-0.2-0.7-0.4-1.5-0.6-2.2
		c-0.4-1.6-1-3.1-1.5-4.7c-0.3-0.8-0.5-1.6-0.8-2.4c-0.3-1.1-0.9-2.2-1.5-3.3c-0.4-0.7-0.8-1.4-1.2-2.1c-0.4-0.7-0.9-1.4-1.4-2.1
		c-0.3-0.4-0.6-0.8-0.9-1.2c-0.3-0.3-0.5-0.6-0.8-0.9c-0.5-0.7-1.1-1.3-1.7-1.9c-0.5-0.5-1-1.1-1.6-1.6c-0.7-0.6-1.4-1.1-2.1-1.7
		c-0.7-0.5-1.4-0.9-2.1-1.4c-0.7-0.4-1.3-0.8-2-1.2c-0.8-0.4-1.7-0.8-2.5-1.1c-0.7-0.3-1.4-0.4-2.1-0.6c-0.8-0.2-1.6-0.5-2.4-0.7
		c-0.8-0.2-1.6-0.3-2.4-0.5C58.9,12.1,58,12,57,11.9c-0.3,0-0.6,0-1,0c-0.5,0-0.9,0-1.4,0c-1.6,0-3.3,0-4.9,0.1
		c-0.8,0-1.6,0.1-2.4,0.2c-0.8,0-1.6,0.1-2.5,0.2c-0.9,0.1-1.9,0.4-2.8,0.6c-0.8,0.2-1.5,0.3-2.3,0.5c-1.6,0.4-3.1,1-4.6,1.6
		c-1.6,0.6-3.2,1.3-4.7,2.2C29,18,27.4,19,26,20.1c-1,0.7-1.9,1.6-2.8,2.5c-0.6,0.6-1.2,1.2-1.8,1.8c-0.6,0.6-1.1,1.2-1.6,1.9
		c-0.5,0.7-1,1.3-1.5,2c-0.5,0.7-1,1.3-1.4,2c-0.5,0.7-0.9,1.4-1.3,2.2c-0.9,1.5-1.6,3-2.3,4.6c-0.4,0.8-0.7,1.7-1,2.5
		c-0.4,1.1-0.7,2.2-1,3.3c-0.1,0.7-0.2,1.4-0.3,2.1c0,0.4-0.1,0.8-0.1,1.2c-0.1,0.8-0.1,1.6-0.1,2.5c0,0.9,0,1.7,0.1,2.6
		c0,0.8,0.1,1.7,0.2,2.5c0.1,0.9,0.2,1.8,0.4,2.7c0.1,0.8,0.2,1.5,0.4,2.3c0.2,0.7,0.4,1.4,0.6,2.1c0.2,0.7,0.4,1.5,0.7,2.2
		c0.3,0.8,0.6,1.6,0.9,2.4c0.3,0.7,0.6,1.4,1,2.1c0.7,1.3,1.5,2.7,2.3,3.9c0.4,0.6,0.8,1.3,1.3,1.9c0.5,0.7,1,1.3,1.5,2
		c-0.1-0.1-0.2-0.2-0.3-0.3c1,1.4,2.1,2.7,3.3,3.9c0.6,0.5,1.1,1.1,1.7,1.6c0.6,0.5,1.2,0.9,1.8,1.4c0.4,0.4,0.9,0.7,1.3,1.1
		c0.3,0.3,0.7,0.6,1.1,0.9c0.5,0.4,1.1,0.7,1.7,1c0.3,0.2,0.7,0.3,1.1,0.5c0.4,0.2,0.8,0.4,1.3,0.6c0.8,0.3,1.6,0.6,2.4,0.9
		c0.8,0.2,1.6,0.4,2.3,0.6c0.8,0.2,1.7,0.4,2.5,0.7c0.7,0.2,1.5,0.4,2.3,0.6c0.9,0.2,1.7,0.4,2.6,0.5c0.8,0.1,1.6,0.1,2.4,0.1
		c0.8,0,1.7,0,2.5,0c1.7,0,3.4,0,5.1-0.3c0.8-0.1,1.6-0.3,2.4-0.5c0.8-0.2,1.6-0.4,2.3-0.6c0.8-0.2,1.5-0.4,2.3-0.6
		c0.7-0.2,1.4-0.4,2.1-0.7c0.8-0.3,1.7-0.6,2.5-1c0.7-0.4,1.4-0.8,2.2-1.2c0.3-0.2,0.6-0.3,0.9-0.5c0.4-0.2,0.9-0.4,1.3-0.6
		c0.5-0.2,1-0.5,1.5-0.9c0.4-0.3,0.8-0.6,1.3-0.9c0.1,0,0.1-0.1,0.2-0.1c0.7-0.5,1.3-1,2-1.6c0.6-0.5,1.2-1.1,1.8-1.7
		c1.2-1.1,2.2-2.4,3.1-3.7c0.5-0.7,1-1.4,1.5-2c0.7-0.9,1.2-2,1.7-3c0.4-0.9,0.8-1.7,1.2-2.6c0.3-0.8,0.6-1.5,0.9-2.3
		c0.1-0.2,0.1-0.3,0.2-0.5c0.2-0.4,0.4-0.8,0.5-1.3c0.2-0.4,0.3-0.9,0.5-1.4c0.1-0.3,0.2-0.6,0.3-0.9c0.2-0.5,0.3-0.9,0.4-1.4
		c0.2-0.8,0.3-1.7,0.4-2.6c0-0.4,0-0.9,0-1.3C88.9,54.9,88.9,54.5,88.9,54.1z M85.6,56.6c0,0.3,0,0.7-0.1,1
		c-0.1,0.7-0.3,1.5-0.5,2.2c-0.3,0.7-0.5,1.5-0.8,2.2c-0.3,0.8-0.7,1.6-1,2.4c-0.3,0.7-0.5,1.4-0.8,2.2c-0.4,0.9-0.8,1.8-1.3,2.7
		c-0.2,0.3-0.4,0.7-0.6,1c-0.2,0.4-0.5,0.8-0.8,1.1c-0.3,0.4-0.5,0.7-0.8,1.1c-0.5,0.6-0.9,1.2-1.4,1.7c-0.5,0.6-1.1,1.2-1.7,1.8
		c-0.7,0.6-1.3,1.2-2,1.8c-0.6,0.5-1.2,1-1.8,1.5c-0.4,0.3-0.9,0.6-1.4,0.9c-0.8,0.5-1.6,0.8-2.4,1.2c-1,0.5-1.9,1-2.9,1.5
		c-0.9,0.3-1.7,0.6-2.6,0.9c-0.9,0.3-1.8,0.5-2.7,0.8c-0.5,0.1-0.9,0.3-1.4,0.4c-0.4,0.1-0.9,0.2-1.3,0.3c-1,0.2-2,0.5-3,0.7
		c-1.6,0.2-3.2,0.2-4.8,0.2c-0.9,0-1.7,0-2.6,0c-0.8,0-1.6-0.1-2.4-0.1c-0.4-0.1-0.9-0.1-1.3-0.2c-0.6-0.1-1.2-0.3-1.7-0.4
		c-0.5-0.1-1-0.3-1.5-0.4c-0.7-0.1-1.3-0.3-2-0.4c-0.5-0.1-1.1-0.2-1.6-0.3c-0.1-0.1-0.3-0.1-0.4-0.2c-0.6-0.3-1.3-0.5-1.9-0.9
		c-0.7-0.4-1.4-0.9-2.2-1.3c-0.6-0.4-1.3-0.8-1.9-1.2c-0.6-0.4-1.3-0.9-1.9-1.3c-0.4-0.3-0.8-0.7-1.2-1.1c-0.4-0.4-0.8-0.8-1.2-1.2
		c-0.8-0.8-1.5-1.6-2.2-2.5c0.1,0.1,0.2,0.2,0.3,0.3c-0.2-0.3-0.4-0.5-0.6-0.8c-0.4-0.5-0.8-1-1.1-1.5c-0.5-0.7-1-1.4-1.5-2.1
		c-0.4-0.7-0.9-1.4-1.3-2.1c-0.5-0.8-0.9-1.5-1.4-2.3c-0.4-0.7-0.7-1.5-1.1-2.2c-0.3-0.7-0.5-1.3-0.8-2c-0.3-0.8-0.5-1.7-0.8-2.5
		c-0.2-0.8-0.4-1.6-0.6-2.4c-0.2-0.7-0.2-1.4-0.3-2.1c-0.2-1.7-0.4-3.3-0.4-5c0-0.9-0.1-1.8,0-2.7c0-0.5,0.1-0.9,0.1-1.4
		c0-0.4,0.1-0.9,0.1-1.3c0.1-0.8,0.3-1.6,0.5-2.4c0.1-0.4,0.3-0.8,0.4-1.2c0.1-0.4,0.3-0.8,0.4-1.2c0.1-0.3,0.3-0.6,0.4-0.9
		c0.4-0.9,0.8-1.7,1.2-2.5c0.5-1,1-1.9,1.5-2.8c1-1.7,2.1-3.2,3.3-4.8c0.3-0.4,0.6-0.8,0.9-1.1c0.5-0.5,1-1.1,1.5-1.6
		c1-1,2-2.1,3.1-3c1.2-0.9,2.6-1.7,3.9-2.5c1.2-0.7,2.4-1.3,3.6-1.8c1.7-0.7,3.4-1.3,5.1-1.8c0.9-0.2,1.7-0.4,2.6-0.6
		c0.8-0.2,1.7-0.4,2.5-0.5c1-0.1,2-0.1,3-0.2c1-0.1,2.1-0.1,3.2-0.2c1.1,0,2.2,0,3.3,0c0.5,0,1,0,1.6,0c0.5,0,1,0,1.5,0.1
		c0.7,0.1,1.4,0.3,2,0.4c0.8,0.2,1.6,0.3,2.3,0.5c0.7,0.2,1.5,0.5,2.2,0.7c0.7,0.2,1.4,0.4,2.1,0.7c0.4,0.2,0.9,0.4,1.3,0.7
		c0.5,0.3,1.1,0.6,1.6,1c0.5,0.3,1,0.6,1.4,0.9c0.5,0.3,1,0.7,1.5,1c0.5,0.4,1,0.8,1.5,1.2c0.6,0.5,1.1,1.1,1.6,1.7
		c0.5,0.6,1.1,1.2,1.6,1.8c0.2,0.3,0.5,0.5,0.7,0.8c0.2,0.2,0.4,0.5,0.6,0.7c0.3,0.4,0.5,0.7,0.8,1.1c0.3,0.4,0.5,0.8,0.7,1.3
		c0.6,0.9,1.1,1.9,1.5,2.9c0.3,0.7,0.5,1.4,0.7,2.1c0.2,0.6,0.4,1.2,0.7,1.8c0.2,0.6,0.4,1.3,0.6,2c0.2,0.7,0.5,1.3,0.6,2
		c0.4,1.2,0.7,2.5,1,3.7c0.2,0.6,0.3,1.2,0.4,1.8c0.1,0.6,0.2,1.2,0.3,1.8c0.2,1.6,0.2,3.2,0.1,4.8c0,0.9,0,1.8,0,2.7
		C85.6,55.7,85.6,56.1,85.6,56.6z"/>
	<path fill="#00a651" d="M78.3,48.5c-0.1-0.9-0.2-1.9-0.4-2.8c-0.1-0.8-0.3-1.6-0.6-2.3c-0.3-0.9-0.8-1.8-1.2-2.6c-0.4-0.7-0.7-1.5-1.1-2.2
		c-0.4-0.7-0.7-1.4-1.1-2.1c-0.5-0.8-1-1.5-1.6-2.2c-0.7-0.9-1.5-1.7-2.3-2.6c-0.5-0.6-1-1.2-1.6-1.7c-0.5-0.4-1-0.8-1.6-1.2
		c-0.4-0.3-0.9-0.7-1.3-1c-0.8-0.6-1.5-1.2-2.4-1.6c-0.9-0.4-1.7-0.8-2.6-1.2c-0.3-0.1-0.7-0.3-1-0.4c-0.4-0.2-0.8-0.3-1.2-0.4
		c-0.9-0.3-1.8-0.5-2.7-0.7c-0.8-0.2-1.7-0.3-2.5-0.5c-0.9-0.1-1.7-0.2-2.6-0.2c-0.9,0-1.7-0.1-2.6-0.1c-0.3,0-0.7,0-1,0
		c-0.5,0-1.1,0-1.6,0c-0.3,0-0.7,0-1,0c-0.9,0-1.8,0.2-2.8,0.4c-0.7,0.2-1.5,0.5-2.2,0.8c-0.6,0.3-1.2,0.5-1.8,0.9
		c-0.3,0.2-0.6,0.3-0.8,0.5c-0.3,0.2-0.6,0.4-0.9,0.6c-0.3,0.2-0.5,0.3-0.8,0.5c-0.4,0.2-0.7,0.5-1,0.8c-0.6,0.4-1.1,0.9-1.6,1.4
		c0,0-0.1,0.1-0.1,0.1c-0.4,0.3-0.7,0.6-1.1,0.9c-0.5,0.5-1,0.9-1.5,1.4c-0.9,0.9-1.8,1.9-2.6,2.8c-0.4,0.4-0.7,0.8-1,1.2
		c-0.3,0.4-0.5,0.8-0.7,1.2c-0.3,0.6-0.6,1.2-0.9,1.9c-0.3,0.7-0.7,1.4-1,2.1c-0.4,0.9-0.8,1.8-1.1,2.7c-0.2,0.7-0.4,1.5-0.5,2.3
		c-0.2,0.9-0.4,1.8-0.5,2.8c-0.1,0.8-0.1,1.6-0.2,2.4c-0.1,0.8-0.1,1.6-0.1,2.4c0,0.6,0,1.2,0,1.8c0,0.6,0.2,1.2,0.3,1.8
		c0.2,0.8,0.4,1.5,0.6,2.3c0.1,0.6,0.3,1.2,0.5,1.8c0.2,0.6,0.4,1.3,0.5,1.9c0.4,1.4,1,2.8,1.7,4c0.2,0.3,0.4,0.6,0.6,0.9
		c0.2,0.2,0.3,0.5,0.5,0.7c0.4,0.6,0.8,1.1,1.3,1.7c0.3,0.4,0.5,0.7,0.8,1.1c0.4,0.4,0.8,0.8,1.2,1.2c0.5,0.4,1.1,0.8,1.6,1.2
		c0.4,0.3,0.7,0.6,1.1,0.8c0.3,0.3,0.7,0.5,1,0.7c0.4,0.3,0.9,0.5,1.3,0.8c0.6,0.3,1.3,0.5,1.9,0.8c0.4,0.1,0.8,0.3,1.1,0.4
		c0.4,0.1,0.7,0.2,1.1,0.3c0.8,0.3,1.6,0.5,2.4,0.7c0.8,0.2,1.6,0.4,2.4,0.5c0.9,0.2,1.8,0.3,2.7,0.4c1.6,0.1,3.2,0.1,4.8,0.1
		c0.8,0,1.7,0,2.5,0c0.4,0,0.7,0,1.1,0c0.5,0,1.1-0.1,1.6-0.2c1.6-0.2,3.2-0.7,4.8-1.1c0.9-0.2,1.7-0.6,2.5-1
		c0.4-0.2,0.7-0.4,1.1-0.6c0.4-0.2,0.7-0.4,1.1-0.6c0.3-0.2,0.6-0.4,0.9-0.5c0.5-0.3,0.9-0.6,1.3-0.9c0.6-0.5,1.2-1,1.9-1.6
		c0.6-0.5,1.2-1.1,1.7-1.7c0.6-0.6,1.1-1.2,1.6-1.8c0.3-0.4,0.7-0.9,1-1.3c0.3-0.4,0.4-0.8,0.7-1.2c0.2-0.4,0.4-0.7,0.6-1.1
		c0.1-0.2,0.2-0.4,0.3-0.6c0.2-0.4,0.4-0.8,0.6-1.2c0.4-0.8,0.8-1.6,1-2.5c0.1-0.4,0.2-0.8,0.3-1.2c0.1-0.4,0.3-0.8,0.4-1.1
		c0.3-0.8,0.5-1.5,0.7-2.3c0.2-0.9,0.2-1.9,0.3-2.8c0-0.8,0-1.6,0-2.5C78.5,50.1,78.4,49.3,78.3,48.5z M75.1,55.1
		c-0.2,1-0.5,2.1-0.9,3.1c-0.2,0.5-0.3,1-0.5,1.5c-0.1,0.4-0.3,0.8-0.4,1.2c-0.2,0.4-0.3,0.7-0.5,1.1c-0.2,0.5-0.6,1-0.9,1.6
		c-0.2,0.3-0.4,0.6-0.6,0.9c-0.3,0.4-0.5,0.8-0.8,1.2c0.1-0.1,0.2-0.2,0.3-0.3c-0.3,0.4-0.6,0.8-0.9,1.3c-0.7,0.9-1.5,1.7-2.3,2.5
		c-0.4,0.4-0.8,0.8-1.3,1.1c-0.4,0.3-0.8,0.6-1.1,1c-0.6,0.5-1.3,0.8-2,1.2c-0.4,0.2-0.8,0.4-1.1,0.6c-0.3,0.2-0.6,0.3-0.9,0.5
		c-1.1,0.4-2.3,0.8-3.4,1.1c-1.1,0.3-2.2,0.4-3.3,0.6c-1.6,0.1-3.3,0.1-4.9,0.1c-1.7,0-3.4,0-5.1-0.2c-0.3,0-0.6-0.1-0.8-0.1
		c-0.6-0.1-1.2-0.2-1.8-0.3c-0.7-0.2-1.3-0.4-2-0.6c-0.7-0.2-1.4-0.4-2-0.7c-0.7-0.3-1.3-0.5-2-0.8c-1-0.5-1.9-1.1-2.7-1.7
		c-0.4-0.4-0.9-0.7-1.3-1c-0.2-0.2-0.5-0.4-0.7-0.6c-0.4-0.4-0.8-0.8-1.1-1.2c-0.4-0.6-0.9-1.1-1.3-1.7c-0.4-0.6-0.8-1.2-1.2-1.8
		c-0.4-0.6-0.7-1.3-1-1.9c-0.2-0.7-0.5-1.3-0.6-2c-0.2-0.7-0.4-1.4-0.6-2.1c-0.2-0.7-0.4-1.4-0.6-2.1c-0.2-0.6-0.3-1.3-0.5-2
		c-0.1-0.7,0-1.5,0-2.2c0-0.5,0-1.1,0.1-1.6c0-0.5,0.1-1,0.1-1.6c0-0.5,0.1-0.9,0.1-1.4c0.1-0.5,0.2-0.9,0.2-1.4
		c0-0.1,0.1-0.3,0.1-0.4c0.3-1,0.7-2.1,1.1-3.1c0.3-0.6,0.5-1.2,0.9-1.8c0.3-0.6,0.7-1.2,1.1-1.9c0.8-1.3,1.5-2.6,2.4-3.9
		c0.4-0.5,0.7-0.9,1.1-1.4c0.3-0.5,0.7-0.9,1-1.4c0.8-1,1.8-1.9,2.8-2.7c0.4-0.3,0.7-0.6,1.1-0.8c0.4-0.3,0.8-0.5,1.2-0.8
		c0.8-0.6,1.6-1.1,2.5-1.5c0.4-0.2,0.7-0.3,1.1-0.4c0.7-0.2,1.3-0.4,2-0.5c1.6-0.2,3.2-0.1,4.9-0.1c1.4,0.1,2.7,0.1,4.1,0.3
		c1.2,0.2,2.3,0.4,3.4,0.7c0.6,0.1,1.2,0.3,1.8,0.5c0.5,0.2,1,0.3,1.6,0.5c0.5,0.2,1.1,0.5,1.6,0.8c0.4,0.2,0.9,0.4,1.3,0.6
		c0.4,0.2,0.7,0.5,1.1,0.8c0.5,0.4,1,0.8,1.5,1.2c0.4,0.3,0.9,0.6,1.3,0.9c0.5,0.4,1,0.8,1.4,1.3c0.3,0.4,0.7,0.8,1,1.2
		c0.7,0.8,1.3,1.5,2,2.3c0.4,0.5,0.7,1,1.1,1.5c0.4,0.6,0.7,1.2,1,1.8c0.3,0.6,0.6,1.3,1,1.9c0.4,0.6,0.7,1.3,1,2
		c0.1,0.4,0.3,0.7,0.4,1.1c0.1,0.4,0.2,0.8,0.3,1.3c0.1,0.7,0.2,1.5,0.2,2.2c0.1,0.7,0.2,1.4,0.2,2.2C75.3,52.2,75.3,53.7,75.1,55.1
		z"/>
	<path  fill="#00a651" d="M51.9,50c-0.2-0.2-0.4-0.3-0.6-0.4c0-0.9,0-1.8,0-2.7c0-0.7,0-1.4,0-2c0-0.7,0.1-1.4,0.2-2.2c0-0.3,0-0.6,0-0.9
		c0-0.4,0-0.7,0.1-1.1c0-0.4,0-0.8,0.1-1.2c0-0.4,0-0.7,0-1.1c0-0.7,0-1.4,0-2.1c0-0.8,0-1.5-0.1-2.2c0-0.2-0.1-0.4-0.1-0.6
		c0-0.2,0-0.4-0.1-0.6c0-0.4-0.1-0.8-0.4-1.1c-0.3-0.3-0.7-0.4-1.1-0.4c-0.4,0-0.8,0.2-1,0.4c-0.3,0.3-0.5,0.7-0.4,1.1
		c0,0.6,0.1,1.1,0.2,1.7c0.1,0.6,0,1.2,0,1.8c0,0.7,0,1.4,0,2.1c0,1.4-0.1,2.9-0.2,4.3c0,0.7-0.1,1.4-0.2,2.2c0,0.7,0,1.4,0,2
		c0,0.9,0,1.8,0,2.8c-0.2,0.1-0.3,0.2-0.4,0.4c-0.2,0.2-0.3,0.5-0.5,0.7c-0.2,0.4-0.3,0.7-0.3,1.2c0,0.2,0,0.4,0.1,0.6
		c-0.2,0.1-0.4,0.2-0.7,0.4c-0.6,0.4-1.3,0.7-1.9,1.1c-0.3,0.2-0.6,0.4-0.9,0.5c-0.3,0.2-0.7,0.3-1,0.5c-0.6,0.3-1.2,0.7-1.9,1
		c-0.5,0.2-1.1,0.4-1.6,0.5c-0.8,0.2-1.3,1-1,1.8c0.2,0.8,1,1.3,1.8,1c1-0.3,1.9-0.6,2.8-1.1c0.8-0.4,1.6-0.8,2.3-1.2
		c0.4-0.2,0.7-0.4,1.1-0.6c0.4-0.2,0.8-0.4,1.2-0.7c0.4-0.2,0.8-0.4,1.1-0.6c0.1,0,0.2-0.1,0.3-0.1c0.2,0.1,0.4,0.1,0.6,0.1
		c0.1,0,0.2,0,0.3,0c0.3,0,0.5,0,0.8-0.1c0.7-0.2,1.4-0.7,1.8-1.3c0.2-0.3,0.3-0.6,0.4-0.9c0.1-0.4,0.1-0.9,0-1.4
		C52.6,50.9,52.3,50.4,51.9,50z"/>
	<path d="M49.1,30.8c0.8,0,1.5-0.7,1.5-1.5c0-0.8-0.7-1.5-1.5-1.5s-1.5,0.7-1.5,1.5C47.6,30.2,48.2,30.8,49.1,30.8z"/>
	<path d="M49.1,70.4c-0.8,0-1.5,0.7-1.5,1.5c0,0.8,0.7,1.5,1.5,1.5s1.5-0.7,1.5-1.5C50.5,71.1,49.9,70.4,49.1,70.4z"/>
	<path d="M27.6,50c-0.8,0-1.5,0.7-1.5,1.5c0,0.8,0.7,1.5,1.5,1.5c0.8,0,1.5-0.7,1.5-1.5C29.1,50.7,28.4,50,27.6,50z"/>
	<path d="M71.9,50c-0.8,0-1.5,0.7-1.5,1.5c0,0.8,0.7,1.5,1.5,1.5c0.8,0,1.5-0.7,1.5-1.5C73.4,50.7,72.7,50,71.9,50z"/>
	<path d="M31.5,39c-0.8,0-1.5,0.7-1.5,1.5c0,0.8,0.7,1.5,1.5,1.5c0.8,0,1.5-0.7,1.5-1.5C33,39.7,32.3,39,31.5,39z"/>
	<path d="M39.2,33.8c0.8,0,1.5-0.7,1.5-1.5s-0.7-1.5-1.5-1.5c-0.8,0-1.5,0.7-1.5,1.5S38.4,33.8,39.2,33.8z"/>
	<path d="M60.5,31.1c-0.8,0-1.5,0.7-1.5,1.5c0,0.8,0.7,1.5,1.5,1.5c0.8,0,1.5-0.7,1.5-1.5C62,31.8,61.3,31.1,60.5,31.1z"/>
	<path d="M68.7,40.5c0-0.8-0.7-1.5-1.5-1.5c-0.8,0-1.5,0.7-1.5,1.5c0,0.8,0.7,1.5,1.5,1.5C68,42,68.7,41.3,68.7,40.5z"/>
	<path d="M68.8,61.5c-0.8,0-1.5,0.7-1.5,1.5s0.7,1.5,1.5,1.5c0.8,0,1.5-0.7,1.5-1.5S69.6,61.5,68.8,61.5z"/>
	<path d="M59.9,68.5c-0.8,0-1.5,0.7-1.5,1.5c0,0.8,0.7,1.5,1.5,1.5c0.8,0,1.5-0.7,1.5-1.5C61.4,69.2,60.7,68.5,59.9,68.5z"/>
	<path d="M38.1,68.8c-0.8,0-1.5,0.7-1.5,1.5c0,0.8,0.7,1.5,1.5,1.5c0.8,0,1.5-0.7,1.5-1.5C39.6,69.4,38.9,68.8,38.1,68.8z"/>
	<path d="M30.3,60.3c-0.8,0-1.5,0.7-1.5,1.5c0,0.8,0.7,1.5,1.5,1.5c0.8,0,1.5-0.7,1.5-1.5C31.8,61,31.1,60.3,30.3,60.3z"/>
</g>
</svg>
