<?xml version="1.0" encoding="utf-8"?>
<!-- Generator: Adobe Illustrator 21.0.2, SVG Export Plug-In . SVG Version: 6.00 Build 0)  -->
<svg version="1.1" id="Vrstva_1" xmlns="http://www.w3.org/2000/svg" xmlns:xlink="http://www.w3.org/1999/xlink" x="0px" y="0px"
	 viewBox="0 0 100 100" style="enable-background:new 0 0 100 100;" xml:space="preserve">
<g>
	<path fill="#00a651" d="M78,31.8c0-1.1,0-2.3-0.1-3.4c0-0.6,0-1.1-0.1-1.7c0-0.5,0-1,0-1.6c0-1.1,0-2.2,0.1-3.3c0-0.5,0.1-1.1-0.2-1.6
		c-0.2-0.4-0.7-0.7-1.1-0.8c-0.3-0.1-0.6-0.1-0.9,0c-0.6,0-1.1-0.1-1.7-0.1c-0.4,0-0.8-0.1-1.3-0.1c0-0.3,0-0.6,0-1
		c0-0.4-0.1-0.7-0.1-1c0-0.1,0-0.1-0.1-0.2c0-0.2-0.1-0.3-0.2-0.5c-0.2-0.2-0.4-0.5-0.6-0.6c-0.2-0.1-0.4-0.2-0.6-0.2
		c-0.2-0.1-0.4-0.1-0.6-0.1c-0.1,0-0.3,0-0.4-0.1c-0.6-0.1-1.3-0.1-1.9-0.2h0c-0.6-0.1-1.3-0.2-1.9-0.2c-0.7,0-1.4-0.1-2-0.2
		C63.5,15,62.7,15,62,14.9c-0.7,0-1.3,0-2,0c-1.6,0-3.1,0-4.7,0c-1.3,0-2.7,0-4,0c-1.8,0-3.5,0-5.3,0.1c-0.7,0-1.4-0.1-2.1-0.1
		c-0.5,0-1.1,0-1.6,0c-0.2,0-0.3,0-0.5,0c-0.7,0-1.5,0-2.2,0c-0.6,0-1.3,0-1.9,0c-0.6,0-1.3,0.1-1.9,0.1c-0.7,0-1.3,0-2,0
		c-0.6,0-1.3,0-1.9,0.1c-0.6,0.1-1.2,0.1-1.8,0.2c-0.7,0-1.3,0.1-2,0.2c-0.6,0.1-1.2,0.1-1.9,0.2c-0.8,0.1-1.5,0.2-2.3,0.3
		c-0.3,0-0.6,0.1-0.9,0.1c-0.2,0-0.3,0-0.5,0.1c-0.2,0-0.4,0.2-0.6,0.2c-0.2,0.1-0.6,0.5-0.7,0.7c-0.1,0.2-0.2,0.4-0.2,0.6
		c0,0.2-0.1,0.4-0.1,0.7c0,0.1,0,0.3,0,0.4c0,0.3,0,0.7,0,1c0,0.6,0,1.3,0.1,1.9c0,0.7,0.2,1.3,0.2,2c0,0.7,0,1.4,0.1,2
		c0.1,0.7,0.1,1.4,0.2,2.2c0.1,1.4,0.2,2.8,0.3,4.2c0.1,2.8,0.1,5.6,0,8.4c0,1.4,0,2.9-0.1,4.3c0,1.5,0,2.9,0,4.4
		c0,1.4,0,2.9,0.1,4.3c0,0.7,0.1,1.3,0.2,2c0,0.7,0.1,1.4,0.1,2.2c0,0.8,0,1.5,0.1,2.3c0,0.7,0.1,1.4,0.1,2.1c0,1.4,0,2.8,0,4.2
		c0,0.6,0,1.2,0.1,1.8c0,0.6,0.1,1.1,0.1,1.7c0,1.1,0,2.3,0.1,3.4c0,1.1,0,2.3,0,3.4c0.1,0.7,0.2,1.4,0.4,2.1
		c0.1,0.4,0.3,0.8,0.6,1.1c0.3,0.3,0.6,0.4,0.9,0.6c0.1,0,0.2,0,0.2,0c0.2,0,0.4,0.1,0.6,0.1c0.1,0,0.2,0,0.3,0c0.3,0,0.7,0.1,1,0.1
		c0.1,0,0.1,0,0.2,0c0,0.3,0,0.6,0,0.8c0,0.3,0,0.5,0.1,0.8c0,0.3,0.1,0.6,0.1,1c0.1,0.4,0.3,0.8,0.5,1.2c0.4,0.7,1.2,1.3,2,1.2
		c0.3,0,0.5-0.1,0.8-0.1c0.5-0.1,1-0.1,1.5-0.1c1.1-0.1,2.2-0.1,3.2-0.1c0.6,0,1.1-0.1,1.7-0.1c0.5,0,1.1,0,1.6-0.1
		c1.1-0.1,2.2-0.2,3.3-0.3c0.6,0,1.3-0.1,1.9-0.1c0.5,0,1-0.1,1.5-0.1c1.1-0.1,2.2,0,3.3,0c1.1,0,2.3,0,3.4,0c0.6,0,1.1,0,1.7-0.1
		c0.5,0,1.1,0,1.6,0c0.6,0,1.1-0.1,1.7-0.1c0.6,0,1.2-0.1,1.7-0.1c0.5,0,1.1-0.1,1.6-0.1c0.5-0.1,1.1-0.1,1.6-0.2
		c0.6-0.1,1.1-0.1,1.7-0.1c0.5,0,1-0.1,1.5-0.1c0.6,0,1.1,0,1.7-0.1c0.6,0,1.1-0.1,1.7-0.1c0.6,0,1.2-0.1,1.8-0.1
		c0.5,0,1.1,0,1.6-0.1c0.6-0.1,1.1-0.1,1.7-0.2c0.5-0.1,1-0.2,1.4-0.3c0.8-0.2,1.5-0.7,1.7-1.5c0.1-0.4,0-0.8,0-1.1
		c0-0.5,0.1-0.9,0.1-1.4c0-0.2,0.1-0.5,0.1-0.7c0-0.3,0-0.6,0-0.8c0-0.5,0-1,0-1.6c0-1.1,0-2.3,0.1-3.4c0-0.5,0.1-1.1,0.1-1.6
		c0-0.6,0.1-1.1,0.1-1.7c0-1.1,0.2-2.2,0.2-3.3c0-0.5,0-1.1,0-1.6c0-0.6,0-1.2,0-1.7c0-1.1,0-2.2,0-3.3c0-1.1,0-2.3,0.1-3.4
		c0.1-1.2,0-2.3,0.1-3.5c0-0.6,0.1-1.2,0.1-1.8c0-0.6,0.1-1.1,0.1-1.7c0-0.6,0.1-1.1,0.1-1.7c0-0.5,0-1,0-1.6
		c0.1-1.2,0.2-2.3,0.3-3.5c0-0.6,0.1-1.1,0.1-1.7c0-0.5,0.1-1,0.1-1.6c0-1.1,0-2.3,0-3.4C78,34.1,78,32.9,78,31.8z M27.1,77.9
		c-0.2,0-0.5-0.1-0.7-0.1c-0.2,0-0.4-0.1-0.7-0.1c0,0,0,0,0,0c-0.1-0.2-0.1-0.4-0.2-0.6c0-0.1-0.1-0.3-0.1-0.4
		c-0.1-0.7-0.1-1.3-0.1-2c0-0.7-0.1-1.4-0.1-2.1c-0.1-1.4-0.1-2.8-0.2-4.2c-0.1-1.4-0.1-2.8-0.1-4.2c0-1.4,0-2.8-0.1-4.3
		c-0.1-1.5-0.2-3-0.2-4.5c0-0.7-0.1-1.3-0.1-2c0-0.7,0-1.4,0-2.1c0-2.9,0-5.8-0.1-8.8c0-0.7,0-1.4,0-2.1c0-0.7,0-1.4,0-2.1
		c0-1.4,0-2.7,0-4.1c0-0.7,0-1.5,0-2.2c0-0.7-0.1-1.4-0.1-2c0-0.7-0.1-1.5-0.1-2.2c0-0.7-0.1-1.4-0.2-2.2c0-0.6,0-1.2,0-1.8
		c0-0.7,0-1.3-0.1-2c0-0.6,0-1.1,0-1.7c0-0.4,0-0.8,0-1.2c0.6-0.1,1.1-0.2,1.7-0.3c0.7-0.2,1.4-0.3,2.1-0.4c0.8-0.1,1.6-0.2,2.5-0.2
		c0.4,0,0.8,0,1.2-0.1c0.4,0,0.9-0.1,1.3-0.2c0.9-0.1,1.7-0.1,2.6-0.2c0.5,0,0.9-0.1,1.4-0.1c0.5-0.1,1-0.1,1.5-0.2
		c0.2,0,0.4,0,0.6-0.1c0.2,0,0.3,0,0.5,0c0.2,0,0.5,0,0.8,0c0.6,0,1.2,0,1.8,0c2.9,0,5.8,0.1,8.6,0.2c1.6,0,3.2,0,4.8,0
		c1.3,0,2.6,0,3.9,0c0.2,0,0.4,0,0.5,0c0.5,0,1,0,1.6,0c0.8,0,1.5,0.1,2.3,0.1c0.4,0.1,0.9,0.1,1.3,0.2c0.6,0.1,1.2,0.2,1.7,0.2
		c0.6,0.1,1.1,0.2,1.7,0.3c0.3,0.1,0.7,0.1,1,0.2c0.1,0,0.3,0,0.4,0.1c0,0.5,0,1,0.1,1.5c0,0.7,0,1.4,0,2.1c0,1.4,0,2.8,0,4.2
		c0,2.7,0,5.5,0,8.2c0,1.3,0,2.7,0,4c0,1.4,0,2.9,0,4.3c0,1.4,0,2.8,0,4.2c0,1.4,0,2.8,0,4.2c0,1.4,0,2.8,0,4.1c0,0.7,0,1.4,0,2.1
		c0,0.7,0,1.4,0,2.1c0,0.7-0.1,1.5-0.1,2.2c0,0.6,0,1.3,0,1.9c-0.1,1.2-0.2,2.4-0.3,3.6c-0.1,0.4-0.1,0.7-0.3,1.1
		c-0.1,0-0.2,0-0.3,0c-0.5,0.1-1,0.1-1.5,0.1c-0.6,0-1.3,0.1-1.9,0.2c0,0,0,0,0,0c-0.4,0-0.8,0.1-1.2,0.1c-0.4,0-0.9,0.1-1.3,0.2
		c-0.3,0-0.6,0.1-1,0.2c-0.2,0.1-0.5,0.1-0.7,0.2c-0.1,0-0.2,0-0.3,0c-0.1,0-0.2,0-0.3,0c-0.1,0-0.3,0-0.4,0
		c-0.4,0.1-0.6,0.3-0.8,0.6c-0.1,0.2-0.2,0.4-0.2,0.6c-0.1,0.3-0.1,0.5-0.1,0.8c0,0.4,0,0.8,0,1.1c0,0.4-0.1,0.8-0.1,1.2
		c0,0.4,0,0.8,0,1.2c0,0.4,0,0.8-0.1,1.3c0,0.5,0,1-0.1,1.5c0,0,0,0,0,0c-0.6,0.1-1.2,0.1-1.8,0.1c-0.7,0-1.4,0-2.2,0
		c-1.4,0-2.8,0-4.2,0.1c-2.8,0-5.7,0.1-8.5,0.1c-2.5,0-4.9,0-7.4,0.1c-1.3,0-2.5,0-3.8,0c-0.6,0-1.3,0-1.9,0
		C28.3,77.9,27.7,77.9,27.1,77.9z M67.5,70.7c-0.1,0.1-0.2,0.2-0.3,0.3c-0.4,0.4-0.8,0.8-1.2,1.2c-0.2,0.2-0.4,0.4-0.6,0.6
		c-0.2,0.2-0.5,0.4-0.7,0.7c-0.4,0.4-0.7,0.7-1.1,1c-0.6,0.4-1.2,0.8-1.7,1.2c-0.3,0.3-0.7,0.5-1,0.9c-0.1,0.1-0.2,0.2-0.3,0.3
		c0-0.2,0-0.4,0.1-0.6c0.1-0.7,0.2-1.3,0.3-2c0.1-0.5,0.2-1,0.3-1.4c0.1-0.3,0.1-0.7,0.2-1c0.1,0,0.1,0,0.2,0
		c0.3-0.1,0.6-0.1,0.9-0.2c0.6-0.1,1.2-0.3,1.8-0.4c0.6-0.1,1.2-0.2,1.8-0.3C66.6,70.8,67,70.8,67.5,70.7z M75.3,39.6
		c0,0.6-0.1,1.2-0.1,1.8c0,0.6,0,1.2-0.1,1.8c0,0.5-0.1,1-0.1,1.5c0,0.6-0.1,1.1-0.1,1.7c0,0.6,0,1.1-0.1,1.7
		c-0.1,1.2-0.1,2.3-0.2,3.5c0,1.2,0,2.3-0.1,3.5c0,0.6-0.1,1.1-0.1,1.7c0,0.5,0,1.1-0.1,1.6c0,1.1,0,2.3,0,3.4c0,1.1,0,2.2,0,3.3
		c0,0.6-0.1,1.2-0.1,1.7c0,0.5-0.1,1-0.1,1.5c-0.1,1.1-0.1,2.2-0.2,3.3c-0.1,1.1-0.2,2.3-0.2,3.4c0,0.9,0,1.9-0.1,2.8
		c-0.1,0.4-0.2,0.9-0.2,1.3c0,0.3,0,0.5,0,0.8c-0.2,0.1-0.5,0.1-0.7,0.2c-0.3,0.1-0.6,0.2-0.9,0.2c-0.5,0.1-1,0.1-1.6,0.2
		c-0.5,0.1-1.1,0-1.6,0.1c-1.1,0.1-2.3,0.2-3.4,0.3c-1.1,0.1-2.1,0.2-3.2,0.3c-0.5,0.1-1.1,0.1-1.6,0.1c-0.6,0-1.1,0.1-1.7,0.2
		c-0.6,0.1-1.1,0.1-1.6,0.2c-0.6,0-1.1,0.1-1.7,0.1c-0.5,0-1.1,0.1-1.6,0.1c-0.6,0-1.2,0.1-1.7,0.1C51.4,82,50.6,82,49.8,82
		c-0.3,0-0.6,0-0.9,0c-1.1,0-2.2,0-3.3,0c-0.5,0-1,0-1.5,0.1c-0.6,0.1-1.1,0.1-1.7,0.1c-0.6,0-1.2,0.1-1.8,0.1
		c-0.6,0-1.1,0.1-1.7,0.1c-0.5,0-1.1,0-1.6,0.1c-0.2,0-0.4,0-0.6,0c-0.3,0-0.7,0-1,0c-0.5,0-1.1,0.1-1.6,0.1c-0.5,0-1.1,0-1.6,0
		c-0.8,0-1.6,0.1-2.5,0c0,0,0-0.1,0-0.1c-0.2-0.6-0.3-1.2-0.4-1.7c0-0.1,0-0.2,0-0.3c0.1,0,0.2,0,0.3,0c1.4,0,2.8,0,4.2,0
		c2.8,0,5.6,0.1,8.4,0.1c2.8,0,5.6,0,8.5,0.1c1.4,0,2.8,0,4.2,0.1c0.7,0,1.4,0,2,0c0.8,0,1.5,0,2.3-0.1c1.1-0.2,2.1-0.7,2.9-1.4
		c0.2-0.2,0.5-0.4,0.7-0.7c0.2-0.2,0.4-0.4,0.6-0.5c0.6-0.4,1.2-0.8,1.7-1.2c0.6-0.4,1.1-0.9,1.6-1.4c0.5-0.5,1-0.9,1.4-1.3
		c0.6-0.6,1.3-1.1,1.8-1.7c0.3-0.3,0.6-0.6,0.8-1c0.1-0.1,0.2-0.2,0.3-0.4c0.2-0.3,0.4-0.7,0.5-1.1c0.1-0.3,0.2-0.6,0.3-0.9
		c0.1-0.4,0.1-0.9,0.2-1.4c0-0.3,0-0.6,0.1-1c0-0.3,0.1-0.7,0.1-1c0-0.6,0.1-1.3,0.1-1.9c0-0.6,0-1.3,0-1.9c0-0.7,0.1-1.5,0.1-2.2
		c0.1-1.4,0-2.8,0-4.3c0-2.8,0-5.6,0-8.5c0-1.4-0.1-2.8,0-4.1c0-1.4,0-2.8,0-4.3c0-1.3,0-2.7,0-4c0-1.4,0-2.7,0-4.1c0-0.7,0-1.3,0-2
		c0-0.6,0-1.3,0-1.9c0-1.4,0-2.7,0-4.1c0-0.2,0-0.4,0-0.6c0.1,0,0.3,0,0.4,0c0.4,0,0.9,0.1,1.3,0.1c0.2,0,0.4,0.1,0.6,0.1
		c0,0.3,0,0.6,0,0.8c0,0.6,0,1.1,0,1.7c0,0.5,0,1.1,0,1.6c0,0.5,0.1,1.1,0.1,1.6c0,0.6,0.1,1.1,0.1,1.7c0,0.6,0.1,1.2,0.1,1.8
		c0,1.2,0,2.3,0,3.5c0,0.5,0,1,0,1.6c0,0.6,0,1.2,0,1.8C75.3,38.6,75.3,39.1,75.3,39.6z"/>
	<path fill="#00a651"  d="M31.3,27.8c0.8,0,1.6,0,2.4,0c0.7-0.1,1.3-0.1,2-0.2c0.7,0,1.4-0.1,2.1-0.1c0.7,0,1.3,0,2,0c2.7,0,5.5,0,8.2,0
		c0.6,0,1.2,0,1.7,0c0.6,0,1.2-0.1,1.8-0.1c1.2,0,2.3,0,3.5,0c0.5,0,1.1,0,1.6,0c0.6,0,1.2,0.1,1.8,0.1c1.3,0.1,2.6,0,3.9,0
		c0.7,0,1.4-0.6,1.4-1.4c0-0.7-0.6-1.4-1.4-1.4c-1.5,0-3,0-4.5-0.1c-0.8-0.1-1.5-0.1-2.3-0.1c-0.6,0-1.3,0-1.9,0
		c-1.4,0-2.8,0-4.2,0.1c-0.7,0-1.4,0-2.1,0c-0.6,0-1.3,0-1.9,0c-1.2,0-2.4,0-3.5,0c-1.1,0-2.2,0-3.3,0c-0.6,0-1.1,0.1-1.7,0.1
		c-0.6,0-1.1,0-1.7,0.1c-0.6,0.1-1.2,0.1-1.8,0.2c-0.6,0.1-1.3,0-2,0c-0.7,0-1.4,0.6-1.4,1.4C29.9,27.2,30.6,27.8,31.3,27.8z"/>
	<path fill="#00a651"  d="M33.5,41.8c0.7,0,1.4-0.1,2.1-0.2c0.7,0,1.5-0.1,2.2-0.1c0.6,0,1.3,0,1.9,0c0.7,0,1.4,0,2.1-0.1c0.7,0,1.4,0,2.2-0.1
		c1.4-0.1,2.8-0.1,4.1-0.1c4.6,0,9.2,0,13.8,0c0.7,0,1.4-0.6,1.4-1.4c0-0.7-0.6-1.4-1.4-1.4c-2.8,0-5.7,0-8.5,0c-1.4,0-2.8,0-4.2,0
		c-0.4,0-0.9,0-1.3,0c-1,0-2.1,0-3.1,0.1c-0.5,0-1,0.1-1.5,0.1c-0.6,0-1.1,0-1.7,0.1c-1.1,0.1-2.2,0-3.3,0.1c-0.6,0-1.1,0.1-1.7,0.1
		c-0.6,0-1.1,0-1.7,0.1c-0.5,0.1-1.1,0.1-1.7,0.1c-0.6,0-1.3,0-1.9-0.1c-0.3,0-0.7,0.2-1,0.4c-0.3,0.3-0.4,0.6-0.4,1
		c0,0.4,0.1,0.7,0.4,1c0.3,0.3,0.6,0.4,1,0.4C32,41.8,32.8,41.9,33.5,41.8z"/>
	<path fill="#00a651"  d="M61.9,52.9c-1.6,0-3.1,0-4.7,0c-1.3,0-2.6,0-3.9,0c-0.7,0-1.4,0-2.1,0c-0.7,0-1.4,0.1-2,0.1c-1.4,0-2.8,0-4.2,0
		c-1,0-2,0.1-3,0.1c-0.9,0-1.9,0-2.8,0c-2,0-4.1,0-6.1,0c-0.7,0-1.4,0.6-1.4,1.4s0.6,1.4,1.4,1.4c2.9,0,5.7,0,8.6,0
		c0.7,0,1.5,0,2.2-0.1c0.7,0,1.4,0,2.1,0c0.7,0,1.3,0,2,0c0.2,0,0.4,0,0.7,0c0.5,0,1,0,1.4,0c1.9-0.1,3.9-0.1,5.8-0.1
		c2,0,4.1,0,6.1,0c0.7,0,1.4-0.6,1.4-1.4C63.3,53.5,62.6,52.9,61.9,52.9z"/>
	<path fill="#00a651"  d="M52.4,66.3c-2.8,0-5.6,0-8.3,0c-1.4,0-2.9,0-4.3,0c-0.7,0-1.4-0.1-2.1-0.2C37,66,36.3,66,35.6,66c-0.7,0-1.4,0-2.1,0
		c-0.7,0-1.4,0.6-1.4,1.4c0,0.7,0.6,1.4,1.4,1.4c1.4,0,2.8-0.1,4.2,0.1C39.2,69,40.6,69,42,69c2.7,0,5.4,0,8.1,0c0.7,0,1.5,0,2.2,0
		c0.7,0,1.4-0.6,1.4-1.4C53.7,66.9,53.1,66.3,52.4,66.3z"/>
</g>
</svg>
