<?xml version="1.0" encoding="utf-8"?>
<!-- Generator: Adobe Illustrator 21.0.2, SVG Export Plug-In . SVG Version: 6.00 Build 0)  -->
<svg version="1.1" id="Vrstva_1" xmlns="http://www.w3.org/2000/svg" xmlns:xlink="http://www.w3.org/1999/xlink" x="0px" y="0px"
	 viewBox="0 0 100 100" style="enable-background:new 0 0 100 100;" xml:space="preserve">
<style type="text/css">
	.st0{fill-rule:evenodd;clip-rule:evenodd;}
</style>
<g>
	<path fill="#00a651" class="st0" d="M92.1,61.3c0-0.5-0.1-0.9-0.2-1.4c-0.1-0.8-0.2-1.5-0.2-2.3c0-0.8,0-1.6,0-2.5c0-1.7-0.2-3.4-0.4-5.1
		c-0.2-1.5-0.4-3.1-0.4-4.6c0-1.6,0-3.2,0-4.7c0-1.6,0-3.2,0-4.9c0-1.6,0-3.1,0-4.7c0-1.6,0-3.1,0.1-4.7c0-0.3,0-0.7,0-1
		c0-0.4,0.1-0.8,0-1.2c-0.1-0.6-0.2-1.1-0.7-1.5c-0.4-0.3-0.8-0.5-1.3-0.5c-0.1,0-0.1,0-0.2,0c-0.5,0.1-1,0.2-1.4,0.5
		c-0.2,0.1-0.4,0.2-0.5,0.3c-0.3,0.2-0.6,0.3-0.9,0.5c-0.4,0.2-0.7,0.4-1.1,0.6c-0.6,0.4-1.3,0.6-1.9,1c-0.3,0.2-0.6,0.3-0.9,0.5
		c-0.3,0.2-0.7,0.4-1,0.5c-0.3,0.2-0.7,0.3-1,0.5c-0.3,0.2-0.7,0.4-1.1,0.6c-0.7,0.4-1.4,0.7-2.2,1c-0.6,0.2-1.2,0.4-1.8,0.6
		c-0.6,0.2-1.3,0.5-1.9,0.6c-0.7,0.2-1.4,0.3-2.2,0.5c-0.7,0.1-1.3,0.3-2,0.4c-2.1,0.2-4.1,0.2-6.2,0.2c-1,0-2,0-3,0
		c-0.5,0-1,0-1.6,0c-0.5,0-0.9,0-1.4-0.1c-0.6-0.1-1.2-0.2-1.8-0.3c-0.7-0.1-1.3-0.3-2-0.5c-0.6-0.2-1.3-0.5-1.9-0.7
		c-0.6-0.2-1.2-0.5-1.7-0.7c-0.4-0.2-0.9-0.4-1.3-0.6c-0.4-0.2-0.7-0.3-1.1-0.4c-0.3-0.1-0.5-0.2-0.8-0.2c-0.5-0.1-1-0.3-1.4-0.5
		c-0.6-0.2-1.1-0.4-1.7-0.6c-0.6-0.2-1.1-0.5-1.7-0.7c-0.3-0.1-0.7-0.3-1-0.4c-0.3-0.1-0.7-0.2-1-0.3c-0.7-0.2-1.3-0.3-2-0.5
		c-0.4-0.1-0.8-0.2-1.1-0.2c-0.5-0.1-1-0.2-1.5-0.2c-0.8-0.1-1.6-0.2-2.4-0.2c-0.8,0-1.6-0.1-2.4,0c-0.9,0-1.7,0.1-2.6,0.2
		c-0.8,0.1-1.6,0.3-2.4,0.5c-0.4,0.1-0.7,0.2-1.1,0.3c-0.3,0.1-0.7,0.2-1,0.3c-0.4,0.1-0.7,0.2-1.1,0.3c-0.3,0.1-0.7,0.3-1,0.4
		c-0.8,0.3-1.6,0.5-2.4,0.9c-0.7,0.3-1.4,0.7-2,1.1c-0.7,0.4-1.3,0.9-2,1.3c-0.6,0.4-1.2,0.8-1.8,1.2c-0.7,0.5-1.4,1.1-2.1,1.7
		c-0.5,0.5-1,1-1.5,1.5c-0.3,0.3-0.6,0.7-0.8,1c-0.4,0.6-0.4,1.3-0.5,2c-0.1,1.1-0.1,2.3,0,3.4c0,1.2,0,2.5,0.1,3.7
		c0,1.3,0.1,2.5,0.1,3.8c0.1,1.2,0.3,2.4,0.4,3.6c0.1,1.3,0.2,2.5,0.2,3.8c0,0.7,0.1,1.4,0.1,2.2c0,0.7,0.1,1.4,0.2,2.1
		C9,59.8,9.1,60.9,9.2,62c0,0.6,0.1,1.3,0.1,1.9c0,0.3,0.1,0.6,0.1,0.8c0.1,0.7,0.1,1.3,0.1,2c0,1.5,0,3.1,0,4.6
		c0,1.4-0.1,2.7-0.1,4.1c0,0.4-0.1,1,0.1,1.4c0.2,0.6,0.6,1.1,1.3,1.2c0.4,0.1,0.9,0.1,1.3-0.1c0.5-0.1,1-0.4,1.4-0.7
		c0.3-0.2,0.6-0.5,0.9-0.7c0.5-0.3,0.9-0.6,1.4-0.9c0.5-0.3,1.1-0.6,1.6-0.9c1-0.6,2-1.1,3-1.6c0.7-0.3,1.5-0.6,2.2-0.8
		c0.4-0.1,0.8-0.2,1.2-0.3c0.3-0.1,0.6-0.1,0.9-0.2c1.3-0.1,2.5-0.3,3.8-0.5c1.2-0.1,2.4-0.2,3.7-0.2c0.6,0,1.2,0,1.9,0
		c0.3,0,0.5,0,0.8,0c0.6,0,1.2,0,1.8,0.1c0.4,0.1,0.8,0.2,1.2,0.2c0.4,0.1,0.9,0.2,1.3,0.2c0.8,0.2,1.5,0.4,2.3,0.6
		c0.7,0.2,1.4,0.3,2.1,0.6c0.8,0.3,1.6,0.5,2.4,0.8c0.7,0.2,1.5,0.5,2.2,0.7c0.7,0.2,1.5,0.4,2.2,0.6c0.7,0.2,1.4,0.5,2.1,0.7
		c0.7,0.2,1.4,0.5,2.2,0.7c0.8,0.2,1.6,0.4,2.4,0.6c0.9,0.2,1.7,0.3,2.6,0.3c0.8,0.1,1.6,0.1,2.4,0.1c0.8,0,1.6,0.1,2.4,0.1
		c1.5,0.1,3.1,0.1,4.6,0.1c0.4,0,0.7,0,1.1,0c0.5,0,1,0,1.5-0.1c1-0.1,1.9-0.4,2.8-0.7c0.8-0.3,1.6-0.6,2.4-1
		c0.7-0.3,1.5-0.7,2.2-1.1c1.4-0.8,2.8-1.5,4.1-2.4c0.7-0.5,1.3-1.1,1.9-1.6c0.6-0.5,1.1-0.9,1.7-1.5c0.6-0.5,1.1-1.1,1.7-1.6
		c0.6-0.5,1.1-1,1.7-1.5c0.3-0.2,0.5-0.4,0.8-0.7c0.4-0.3,0.6-0.6,0.8-1.1c0.1-0.3,0.2-0.5,0.3-0.8c0-0.1,0-0.2,0-0.3
		c0.1-0.5,0.1-0.9,0.1-1.4C92.1,61.8,92.1,61.5,92.1,61.3z M88.9,62.7c0,0.2-0.1,0.5-0.2,0.7c0,0,0,0,0,0.1c-0.5,0.6-1.1,1-1.6,1.6
		c-0.7,0.6-1.4,1.2-2.1,1.8c-0.3,0.3-0.7,0.6-1,0.9c-0.3,0.3-0.7,0.6-1,0.9c-0.6,0.5-1.2,1.1-1.8,1.6c-0.9,0.6-1.9,1.2-2.8,1.7
		c-1.1,0.6-2.1,1.1-3.2,1.6c-0.3,0.1-0.5,0.2-0.8,0.3c-0.3,0.1-0.6,0.2-0.9,0.3c-0.8,0.2-1.6,0.5-2.4,0.6c-0.9,0.1-1.9,0.1-2.8,0.1
		c-1,0-2,0-3,0c-1.1-0.1-2.1-0.2-3.2-0.2c-1,0-2.1-0.1-3.1-0.2c-0.7-0.1-1.3-0.2-2-0.4c-0.8-0.2-1.6-0.4-2.4-0.6
		c-0.7-0.2-1.4-0.5-2.1-0.7c-0.7-0.2-1.4-0.4-2-0.7c-0.8-0.2-1.5-0.4-2.3-0.7c-0.7-0.2-1.5-0.5-2.2-0.7c-0.8-0.2-1.6-0.5-2.4-0.7
		c-0.7-0.2-1.4-0.4-2.1-0.6c-0.6-0.2-1.2-0.4-1.9-0.5c-0.6-0.1-1.1-0.2-1.7-0.3c-1.2-0.3-2.5-0.2-3.7-0.2c-0.4,0-0.8,0-1.2,0
		c-1.2,0-2.3,0-3.4,0.1c-1.2,0.1-2.4,0.3-3.6,0.5c-0.6,0.1-1.2,0.1-1.7,0.2c-0.7,0.1-1.4,0.3-2.2,0.5c-1.3,0.4-2.6,0.9-3.8,1.5
		c-0.6,0.3-1.1,0.6-1.7,0.8c-0.2,0.1-0.5,0.3-0.7,0.4c-0.3,0.2-0.7,0.3-1,0.5c-0.6,0.3-1.1,0.6-1.7,0.9c-0.2,0.1-0.3,0.2-0.5,0.4
		c0-0.7,0-1.4,0-2.1c0-1.5,0-3.1-0.1-4.6c0-1.6-0.2-3.2-0.3-4.9c-0.1-0.8-0.1-1.5-0.1-2.3c0-0.8,0-1.7-0.1-2.5
		c-0.1-2.2-0.1-4.4-0.2-6.6c-0.1-1.1-0.1-2.3-0.2-3.4c-0.1-1.1-0.2-2.2-0.4-3.4c-0.1-0.9-0.2-1.7-0.3-2.6c-0.1-0.5-0.1-0.9-0.1-1.4
		c0-1.4,0-2.9,0.2-4.3c0-0.1,0-0.2,0.1-0.3c0.1-0.2,0.3-0.5,0.4-0.7c0.6-0.7,1.2-1.3,1.9-1.9c0.5-0.4,1-0.7,1.5-1
		c0.5-0.4,1.1-0.7,1.7-1.1c0.5-0.3,1-0.7,1.6-1.1c0.3-0.2,0.7-0.4,1-0.6c0.2-0.1,0.5-0.3,0.7-0.4c0.8-0.3,1.5-0.6,2.3-0.9
		c1-0.4,2.1-0.7,3.2-1c0.6-0.2,1.3-0.3,1.9-0.5c0.5-0.1,1-0.2,1.4-0.3c0.9-0.1,1.7-0.1,2.6-0.1c0.8,0,1.6,0.1,2.5,0.2
		c0.6,0.1,1.2,0.2,1.8,0.3c0.4,0.1,0.8,0.2,1.2,0.2c0.3,0.1,0.7,0.1,1,0.2c0.7,0.2,1.3,0.3,2,0.6c0.7,0.3,1.4,0.5,2.1,0.8
		c-0.1-0.1-0.2-0.1-0.3-0.1c0.9,0.4,1.9,0.7,2.8,1.1c0.8,0.3,1.6,0.5,2.4,0.8c0.7,0.3,1.4,0.7,2.1,0.9c0.7,0.3,1.4,0.6,2.1,0.8
		c0.7,0.2,1.4,0.5,2.2,0.8c0.3,0.1,0.7,0.2,1,0.3c0.4,0.1,0.8,0.2,1.1,0.3c0.9,0.2,1.8,0.3,2.6,0.3c0.8,0,1.7,0,2.5,0
		c1.6,0,3.3,0,4.9,0c0.8,0,1.6,0,2.4,0c0.9,0,1.8-0.1,2.6-0.2c0.7-0.1,1.5-0.3,2.2-0.4c0.8-0.2,1.5-0.3,2.3-0.5
		c0.7-0.2,1.4-0.5,2.1-0.7c0.8-0.3,1.5-0.6,2.3-1c0.7-0.3,1.4-0.7,2.1-1.1c0.3-0.2,0.6-0.4,1-0.5c0.4-0.2,0.7-0.4,1.1-0.6
		c0.4-0.2,0.7-0.4,1.1-0.5c0.3-0.2,0.7-0.4,1-0.5c0.8-0.4,1.5-0.8,2.3-1.1c0.1-0.1,0.2-0.1,0.4-0.2c0,0.2,0,0.3,0,0.5
		c0,0.7,0.1,1.5,0.1,2.2c0,1.6,0,3.2,0,4.9c0,1.6,0,3.2,0,4.7c0,1.6,0,3.1,0,4.7c0,1.6,0,3.2,0.1,4.8c0.1,1.6,0.4,3.1,0.5,4.7
		c0,0.7,0.1,1.5,0.1,2.2c0,0.8,0,1.6,0,2.4c0,0.8,0,1.6,0,2.4c0,0.4,0.1,0.7,0.1,1.1c0.1,0.4,0.1,0.8,0.1,1.3
		C88.9,62.2,88.9,62.4,88.9,62.7z"/>
	<path fill="#00a651" class="st0" d="M68.7,49.9c0-0.5-0.1-0.9-0.2-1.4c-0.1-0.7-0.3-1.4-0.5-2c-0.1-0.5-0.3-1-0.5-1.5c-0.2-0.4-0.4-0.8-0.7-1.3
		c-0.7-1.3-1.6-2.4-2.6-3.4c-0.5-0.5-1-1.1-1.6-1.5c-0.3-0.3-0.7-0.5-1-0.8c-0.3-0.2-0.6-0.4-0.9-0.6c-0.3-0.2-0.6-0.4-0.9-0.6
		c-0.3-0.2-0.6-0.3-1-0.5c-0.7-0.3-1.5-0.6-2.2-0.7c-1.4-0.3-2.8-0.4-4.2-0.4c-0.1,0-0.2,0-0.3,0c-1.4,0-2.9,0-4.3,0.2
		c-0.7,0.1-1.5,0.3-2.2,0.5c-0.8,0.2-1.5,0.4-2.2,0.7c-1.3,0.6-2.6,1.1-3.8,1.8c-0.9,0.5-1.7,1.2-2.5,2c-0.3,0.3-0.5,0.5-0.8,0.8
		c-0.5,0.5-0.9,1.2-1.3,1.8c-0.2,0.3-0.3,0.5-0.5,0.8c-0.2,0.3-0.3,0.7-0.5,1c-0.1,0.4-0.3,0.7-0.4,1.1c-0.2,0.7-0.4,1.3-0.6,2
		c-0.1,0.8-0.2,1.5-0.3,2.3c0,0.3,0,0.7,0,1c0,0.3,0.1,0.7,0.1,1c0.1,0.7,0.2,1.5,0.4,2.2c0.1,0.3,0.2,0.7,0.3,1
		c0.2,0.6,0.5,1.2,0.8,1.7c0.2,0.3,0.3,0.6,0.5,0.8c0.4,0.6,0.9,1.1,1.5,1.6c0,0,0.1,0,0.1,0.1c0.9,1,1.9,1.9,3,2.7
		c0.6,0.4,1.1,0.7,1.7,1c0.6,0.3,1.3,0.6,1.9,0.9c0.7,0.3,1.4,0.6,2.2,0.9c0.3,0.1,0.6,0.2,1,0.3c0.3,0.1,0.7,0.1,1,0.2
		c0.8,0.2,1.6,0.4,2.4,0.5c0.7,0.1,1.5,0.1,2.2,0.1c0.7,0,1.3,0,2-0.1c0.8-0.1,1.6-0.2,2.3-0.4c0.7-0.2,1.4-0.4,2.1-0.6
		c0.4-0.1,0.7-0.3,1.1-0.5c0.4-0.2,0.7-0.4,1.1-0.5c0.4-0.2,0.9-0.5,1.3-0.7c0.5-0.3,0.9-0.7,1.4-1c0.6-0.5,1.2-1,1.8-1.5
		c0.7-0.7,1.4-1.5,1.9-2.3c0.4-0.6,0.8-1.3,1-2c0.2-0.7,0.4-1.3,0.6-2c0.2-0.7,0.3-1.4,0.4-2.1c0-0.5,0-0.9,0-1.4
		C68.7,50.6,68.7,50.2,68.7,49.9z M65.9,52.8c-0.2,0.9-0.4,1.8-0.8,2.7c-0.4,0.7-0.7,1.5-1.2,2.1c-0.6,0.8-1.4,1.4-2.2,2
		c-0.4,0.3-0.8,0.6-1.2,0.9c-0.5,0.4-1.1,0.7-1.6,1c-0.5,0.3-1.1,0.6-1.6,0.8c-0.5,0.2-0.9,0.3-1.4,0.5c-0.4,0.1-0.9,0.2-1.3,0.3
		c-0.8,0.1-1.7,0.1-2.5,0.1c-0.5,0-1,0-1.5,0c-0.4,0-0.9-0.1-1.3-0.1c-0.6-0.1-1.2-0.2-1.7-0.3c-0.6-0.1-1.2-0.3-1.8-0.5
		c-0.6-0.2-1.2-0.4-1.8-0.6c-0.6-0.2-1.1-0.5-1.7-0.7c-0.6-0.2-1.1-0.5-1.7-0.8c-0.5-0.3-1-0.6-1.5-1c-1-0.8-1.9-1.6-2.8-2.6
		c-0.1-0.2-0.2-0.3-0.2-0.5C36,56,36,55.8,35.9,55.7c-0.2-0.4-0.2-0.8-0.3-1.2c-0.1-0.3-0.1-0.7-0.2-1c-0.1-1.2-0.2-2.5,0-3.7
		c0.1-0.5,0.2-1,0.3-1.5c0.1-0.3,0.2-0.5,0.3-0.8c0.1-0.3,0.2-0.6,0.3-0.8c0.2-0.4,0.3-0.7,0.5-1.1c0.2-0.4,0.5-0.8,0.7-1.2
		c0.2-0.2,0.3-0.5,0.5-0.7c0.4-0.5,0.8-0.9,1.3-1.3c0.3-0.3,0.7-0.6,1-0.9c0.8-0.6,1.6-1,2.5-1.5c0.6-0.3,1.2-0.6,1.8-0.9
		c1.3-0.4,2.6-0.7,3.9-1c1-0.1,2.1-0.1,3.1-0.1c0.6,0,1.2,0,1.8,0c0.5,0,1,0.1,1.5,0.1c0.4,0.1,0.8,0.1,1.1,0.2
		c0.4,0.1,0.8,0.2,1.2,0.3c1.1,0.5,2.1,1.1,3.1,1.8c0.5,0.4,1.1,0.9,1.5,1.4c0.6,0.6,1.2,1.2,1.7,1.8c0.6,0.9,1.2,1.8,1.7,2.8
		c0.4,1,0.6,2,0.8,3.1c0,0.4,0.1,0.8,0.1,1.2C66,51.4,66,52.1,65.9,52.8z"/>
	<path fill="#00a651" class="st0" d="M55.5,48.1c-1.4,1.3-2.3,3-3.7,4.2c-0.1,0.1-0.2,0.2-0.2,0.2c0.1,0,0.1-0.1,0.2-0.2c0.7-0.9,3.2-5.6,3.6-8.7
		c-1.2-1-2.4,0-3.1,0.8c0.3-1.1,1.2-1.6,1.3-3c-0.4-0.2-1.6-0.8-2.1-0.4c-1.4,1.1-3.6,4-4.6,5c0,0.2,0,0.3,0,0.5
		c0.7,0.5,1.9,0.2,2.4-0.2c-0.5,1.7-1.9,3.2-1.5,5.4c0.6,0.3,1.3,0,1.8,0.2c-0.7,1.5-1.9,4.7,1.4,4.1c1.1-0.6,1.8-2.2,2.7-2.5
		c-1.1,2.4-2.4,4.6-3.3,7.2c0.6,0.3,0.8-0.5,1.5-0.4c2-3.7,4-7.4,5.7-11.5c-0.1-0.4-0.4-0.5-0.5-0.9C56.5,48.1,56,48.1,55.5,48.1z"
		/>
</g>
</svg>
