<?xml version="1.0" encoding="utf-8"?>
<!-- Generator: Adobe Illustrator 21.0.2, SVG Export Plug-In . SVG Version: 6.00 Build 0)  -->
<svg version="1.1" id="Vrstva_1" xmlns="http://www.w3.org/2000/svg" xmlns:xlink="http://www.w3.org/1999/xlink" x="0px" y="0px"
	 viewBox="0 0 100 100" style="enable-background:new 0 0 100 100;" xml:space="preserve">
<path fill="#00a651"  d="M91.1,32.5c0-0.3-0.1-0.6-0.1-0.8c-0.1-0.4-0.2-0.8-0.4-1.1c-0.4-0.6-1-1.1-1.7-1.4c-0.3-0.2-0.7-0.3-1-0.5
	c-0.4-0.2-0.7-0.4-1.1-0.7c-0.7-0.4-1.4-0.8-2.1-1.2c-0.5-0.3-1-0.6-1.5-0.9c-0.5-0.3-1-0.5-1.5-0.8c-1-0.6-2.1-1.1-3.2-1.6
	c-2.1-1.1-4.4-2.1-6.6-3c-1.6-0.7-3.2-1.5-4.8-2.1c-0.8-0.3-1.6-0.5-2.4-0.8c-0.8-0.3-1.5-0.6-2.3-0.9c-0.9-0.3-1.7-0.6-2.6-0.9
	c-0.8-0.3-1.6-0.5-2.3-0.8c-0.3-0.1-0.7-0.3-1-0.4c-0.4-0.1-0.8-0.2-1.3-0.4c-0.8-0.3-1.6-0.6-2.5-0.8c-0.8-0.2-1.6-0.5-2.4-0.6
	c-0.4-0.1-0.8-0.1-1.3-0.1c-0.9,0-1.7,0.2-2.5,0.5c-0.3,0.2-0.6,0.4-0.9,0.6c-0.4,0.2-0.7,0.4-1.1,0.6c-0.7,0.4-1.5,0.7-2.2,1.1
	c-0.7,0.4-1.5,0.8-2.2,1.2c-0.7,0.4-1.5,0.8-2.2,1.2c-0.7,0.4-1.4,0.7-2.1,1.1c-0.8,0.4-1.5,0.8-2.2,1.2c-0.6,0.3-1.1,0.6-1.7,0.9
	c-0.6,0.3-1.1,0.6-1.7,0.9c-0.5,0.3-1.1,0.7-1.6,1c-0.5,0.3-1,0.6-1.5,0.8c-1.1,0.6-2.1,1.3-3.1,1.9c-1.1,0.7-2.1,1.4-3.1,2.2
	c-1.4,1-2.8,2.1-4.1,3.2c-0.4,0.3-0.9,0.7-1.3,1c-0.7,0.6-1.5,1.2-2.2,1.8c-0.7,0.5-1.4,1.1-2.1,1.6c-0.3,0.3-0.6,0.5-0.9,0.8
	c-0.6,0.5-1.1,1.3-1.3,2c0,0.1,0,0.1,0,0.2c-0.1,0.2-0.2,0.4-0.3,0.6c0,0.1,0,0.2,0,0.2c0,0.1,0,0.3,0,0.4c0,0.1,0,0.2,0,0.3
	c0,0.8-0.1,1.6-0.1,2.3C8.3,45.8,8.1,49.2,8,52.6c0,0.9-0.1,1.8,0,2.7c0,0.8,0.1,1.7,0.2,2.5c0.1,0.8,0.2,1.6,0.3,2.3
	c0.1,0.8,0.2,1.6,0.2,2.4c0,0.8,0,1.7,0,2.5c0,0.8,0.1,1.7,0.2,2.5c0,0.5,0.1,1,0.2,1.4c0.1,0.5,0.4,1,0.8,1.4
	c0.3,0.3,0.6,0.5,1,0.7c0.3,0.2,0.6,0.4,0.9,0.6c0.4,0.2,0.7,0.4,1.1,0.6c1.7,1.1,3.5,2,5.3,2.7c0.4,0.2,0.7,0.3,1.1,0.5
	c0.5,0.2,1,0.5,1.5,0.7c1,0.4,2,0.9,3,1.3c0.9,0.4,1.8,0.7,2.7,1.1c0.7,0.3,1.5,0.6,2.2,0.9c0.5,0.2,1,0.4,1.5,0.6
	c0.3,0.1,0.7,0.2,1,0.3c1.6,0.6,3.2,1.2,4.7,1.8c0.8,0.3,1.7,0.6,2.5,0.9c0.8,0.3,1.5,0.5,2.3,0.8c0.8,0.3,1.7,0.6,2.5,0.9
	c0.8,0.3,1.5,0.6,2.3,0.8c1.5,0.5,3,1.1,4.6,1.4c1,0.2,2,0.4,3,0.4c0.8,0,1.5-0.3,2.1-0.7c0.4-0.3,0.7-0.6,1.1-0.9
	c0.2-0.2,0.5-0.3,0.7-0.5c0.3-0.2,0.7-0.4,1.1-0.5c0.8-0.4,1.5-0.8,2.2-1.2c0.3-0.2,0.6-0.4,0.9-0.6c0.4-0.2,0.8-0.4,1.2-0.6
	c0.8-0.4,1.6-0.8,2.3-1.3c0.7-0.5,1.4-0.9,2.1-1.4c0.3-0.2,0.7-0.4,1-0.6c0.4-0.2,0.8-0.5,1.1-0.7c0.7-0.4,1.5-0.8,2.2-1.3
	c0.7-0.4,1.4-0.9,2.2-1.3c1-0.5,2-1.1,3-1.7c1.1-0.6,2.1-1.3,3.2-1.9c1.9-1.1,3.9-2.1,5.9-3c0.7-0.3,1.5-0.6,2.2-0.9
	c0.3-0.1,0.5-0.3,0.8-0.4c0.5-0.4,0.9-0.8,1.2-1.3c0.4-0.6,0.4-1.3,0.5-2c0.1-0.7,0.2-1.5,0.2-2.2c0.1-0.8,0.1-1.7,0.1-2.5
	c0-0.9,0-1.8,0.1-2.6c0.1-0.8,0.1-1.5,0.1-2.3c0-0.9,0.1-1.8,0.1-2.7c0.1-0.8,0.1-1.6,0.1-2.4c0-1.7,0-3.3,0.2-5
	c0.1-0.8,0.1-1.7,0.1-2.5c0-0.9,0-1.7,0-2.6c0-1.6,0.1-3.2,0.1-4.9C91.2,34.1,91.2,33.3,91.1,32.5z M36.2,22.3
	c0.8-0.4,1.6-0.8,2.4-1.2c0.3-0.2,0.6-0.3,0.9-0.5c0.4-0.2,0.7-0.4,1.1-0.6c1.2-0.6,2.4-1.3,3.7-2c1.1-0.6,2.1-1.1,3.2-1.6
	c0.3-0.1,0.5-0.2,0.8-0.2c0.2,0,0.4,0,0.6,0c0.3,0,0.5,0,0.8,0c0.1,0,0.1,0,0.2,0c1.5,0.3,3,0.8,4.5,1.2c0.3,0.1,0.7,0.2,1,0.3
	c0.3,0.1,0.7,0.2,1,0.4c0.8,0.3,1.6,0.5,2.5,0.8c1.4,0.4,2.9,0.9,4.3,1.4c0.5,0.2,1.1,0.4,1.6,0.5c-0.5,0.3-1,0.6-1.5,1
	c-0.1,0-0.1,0.1-0.2,0.1c-0.3-0.5-0.7-1-1.1-1.4c-0.3-0.3-0.6-0.5-0.9-0.7c-0.1,0-0.2-0.1-0.3-0.2c-0.2-0.1-0.5-0.2-0.7-0.3
	c-0.5-0.1-0.9-0.2-1.4-0.2c-0.1,0-0.3,0-0.4,0c-0.4,0-0.8,0-1.1,0.1c-0.9,0.1-1.8,0.2-2.6,0.6c-0.5,0.3-1,0.5-1.5,0.9
	c-0.5,0.4-1,0.8-1.3,1.3c-0.3,0.4-0.6,0.8-0.8,1.3c-0.2-0.3-0.4-0.6-0.6-0.8c-0.2-0.3-0.5-0.5-0.7-0.7c-0.3-0.3-0.6-0.6-1-0.8
	c-0.6-0.4-1.2-0.6-1.8-0.8c-0.4-0.1-0.8-0.1-1.2-0.1c-0.3,0-0.6,0-0.9,0c-1.1,0.1-2.1,0.3-3.1,0.7c-0.5,0.2-1,0.4-1.5,0.7
	c-0.4,0.2-0.8,0.5-1.1,0.8c-0.2,0.2-0.4,0.4-0.6,0.6c-0.4,0.4-0.7,0.9-1,1.3c-0.1,0-0.2-0.1-0.3-0.1c-0.6-0.2-1.1-0.4-1.7-0.6
	c-0.2-0.1-0.4-0.2-0.6-0.3C35.1,22.8,35.6,22.6,36.2,22.3z M59.5,23.9c-0.5,0.3-1,0.7-1.5,1c-0.8,0.6-1.7,1-2.5,1.5
	c-0.8,0.4-1.5,0.9-2.2,1.4c0.1-0.2,0.2-0.5,0.2-0.7c0.2-0.5,0.3-0.9,0.5-1.3c0.2-0.4,0.4-0.8,0.7-1.2c0.3-0.3,0.5-0.5,0.8-0.8
	c0.2-0.2,0.5-0.3,0.7-0.4c0.3-0.1,0.6-0.2,0.9-0.2c0.5-0.1,1-0.1,1.5,0c0,0,0,0,0,0c0.1,0,0.1,0.1,0.2,0.1c0.1,0.1,0.2,0.2,0.3,0.3
	C59.3,23.7,59.4,23.8,59.5,23.9z M48.1,28.4c-0.3-0.1-0.7-0.2-1-0.3c-2-0.6-3.9-1.5-5.9-2.2c-0.1,0-0.2-0.1-0.2-0.1
	c0.2-0.3,0.5-0.5,0.7-0.7c0.2-0.1,0.5-0.3,0.7-0.4c0.3-0.1,0.6-0.2,0.9-0.3c0.3-0.1,0.7-0.2,1.1-0.2c0.4,0,0.7-0.1,1.1,0
	c0.1,0,0.2,0,0.2,0.1c0.2,0.1,0.3,0.2,0.5,0.3c0.3,0.3,0.6,0.5,0.9,0.8c0.1,0.2,0.2,0.4,0.3,0.6c0.2,0.7,0.4,1.4,0.6,2.1
	C48.1,28,48.1,28.2,48.1,28.4z M27.6,46.7c-0.1,0.2-0.1,0.4-0.1,0.6c-0.1,0.6-0.1,1.2-0.2,1.8c0,0.5-0.1,1-0.1,1.5c0,2,0,4,0,6
	c0,2,0,3.9,0,5.9c0,3.5,0,7,0,10.5c0,0.9,0,1.8,0.1,2.6c-0.1-0.1-0.3-0.1-0.4-0.2c-0.7-0.3-1.4-0.6-2.1-0.9c-0.5-0.2-1-0.5-1.5-0.7
	c-0.6-0.3-1.2-0.6-1.8-0.8c-0.7-0.3-1.4-0.6-2.1-0.9c-1.1-0.5-2.2-1.1-3.3-1.8c-0.5-0.3-1-0.7-1.4-1c-0.5-0.4-1-0.6-1.5-1
	c-0.2-0.1-0.3-0.2-0.5-0.4c0,0,0,0-0.1-0.1c-0.1-0.2-0.1-0.5-0.1-0.7c-0.1-0.4-0.1-0.9-0.2-1.3C12,65.4,12,64.9,12,64.3
	c0-0.7,0-1.3-0.1-2c-0.1-1.3-0.3-2.6-0.5-3.9c0-0.2,0-0.4-0.1-0.6c0-1.5,0.1-3,0.2-4.4c0.1-1.7,0.2-3.5,0.2-5.2
	c0.1-1.5,0.1-3.1,0.2-4.6c0-1,0.1-2,0.1-3c0.6,0.3,1.2,0.5,1.8,0.6c0.5,0.1,1,0.2,1.4,0.3c0.8,0.2,1.7,0.5,2.5,0.8
	c1.1,0.5,2.3,1,3.4,1.6c0.6,0.3,1.1,0.5,1.7,0.8c0.6,0.3,1.2,0.5,1.8,0.7c0.7,0.3,1.4,0.6,2.2,0.9C27.1,46.4,27.4,46.6,27.6,46.7
	C27.6,46.7,27.6,46.7,27.6,46.7z M30.2,44c-0.1,0.1-0.3,0.2-0.4,0.3c-0.3-0.1-0.6-0.2-0.9-0.4c-0.8-0.3-1.6-0.6-2.3-0.9
	c-0.6-0.3-1.3-0.6-1.9-0.8c-0.8-0.3-1.6-0.7-2.3-1.1c-0.8-0.4-1.7-0.7-2.5-1.1c-1-0.5-1.9-0.8-3-1.2c-0.5-0.1-1-0.3-1.4-0.4
	c-0.2,0-0.4-0.1-0.6-0.1c-0.4-0.1-0.8-0.2-1.2-0.4c0.1-0.1,0.2-0.2,0.3-0.3c0.5-0.4,1-0.8,1.5-1.2c0.5-0.4,1-0.8,1.4-1.2
	c0.5-0.4,1-0.8,1.5-1.3c0.9-0.7,1.8-1.5,2.8-2.2c-0.1,0.1-0.2,0.2-0.3,0.3c0.4-0.3,0.8-0.7,1.3-1c0.4-0.3,0.8-0.6,1.1-0.9
	c0.7-0.5,1.4-1,2.1-1.4c0.8-0.5,1.6-1,2.3-1.5c0.3-0.2,0.6-0.4,0.9-0.6c0.4-0.2,0.8-0.5,1.2-0.7c0.2-0.1,0.4-0.3,0.7-0.4
	c1,0.4,1.9,0.8,2.9,1.2c0.6,0.3,1.1,0.5,1.7,0.7c0.5,0.2,1,0.3,1.5,0.5c0,0.7,0.1,1.4,0.4,2.1c0.1,0.3,0.2,0.6,0.4,0.9
	c0,0.1,0.1,0.1,0.1,0.2c0.2,0.2,0.4,0.5,0.5,0.7c0.4,0.4,0.9,0.7,1.3,1c1.1,0.8,2.4,1.1,3.8,1.2c0.4,0,0.8,0,1.2,0
	c-0.2,0.2-0.4,0.3-0.6,0.5c0.1-0.1,0.3-0.2,0.4-0.3c-1.4,1-2.9,2.1-4.3,3.1c-0.8,0.5-1.6,1.1-2.3,1.6c-0.7,0.5-1.4,1-2.1,1.6
	c-0.8,0.6-1.6,1.2-2.5,1.8C31.8,42.9,31,43.5,30.2,44z M51.9,83.2c0,0.2-0.1,0.3-0.1,0.5c-0.2,0-0.3,0-0.5,0
	c-1.6-0.3-3.1-0.7-4.6-1.2c-0.8-0.2-1.6-0.5-2.3-0.8c-0.8-0.3-1.5-0.6-2.3-0.8c-0.9-0.3-1.7-0.5-2.6-0.8c-0.8-0.2-1.5-0.5-2.3-0.8
	c-1.6-0.5-3.2-1.2-4.8-1.8c-0.2-0.1-0.4-0.2-0.7-0.2c-0.1,0-0.2,0-0.2-0.1c-0.1-1-0.1-1.9-0.1-2.9c0-1,0-2.1,0-3.1
	c0-4.1,0-8.2,0-12.3c0-1.9,0-3.8,0-5.7c0-0.9,0-1.8,0-2.7c0-0.5,0.1-0.9,0.1-1.4c0-0.4,0.1-0.7,0.1-1.1c0,0,0.1-0.1,0.1-0.1
	c0.2,0.1,0.5,0.2,0.8,0.2c0.3,0.1,0.7,0.2,1,0.3c1.5,0.5,3,1,4.4,1.5c1.5,0.5,3,1,4.5,1.4c0.4,0.1,0.8,0.2,1.2,0.4
	c0.4,0.1,0.7,0.2,1,0.4c0.7,0.3,1.5,0.5,2.2,0.7c0.3,0.1,0.7,0.3,1,0.4c0.3,0.1,0.7,0.2,1.1,0.4c0.7,0.2,1.4,0.5,2.1,0.8
	c0.3,0.1,0.5,0.2,0.8,0.3c0.1,0.7,0.1,1.4,0.2,2.2c0,0.8,0,1.6,0,2.4c0,1.5,0,3.1,0,4.6c0,3.1,0,6.1,0,9.2c0,1.7,0,3.3,0,5
	c0,0.8,0,1.7,0,2.5c0,0.4,0,0.8,0,1.2C51.9,82.4,51.9,82.8,51.9,83.2z M53.6,52.2c-0.1,0-0.1,0-0.2,0c-0.6-0.1-1.3-0.4-1.9-0.6
	c-0.7-0.2-1.4-0.5-2.1-0.8c-0.3-0.1-0.6-0.2-0.9-0.3c-0.4-0.1-0.7-0.3-1.1-0.4c-0.8-0.2-1.6-0.5-2.3-0.8c-1.5-0.5-3-0.9-4.5-1.4
	c-1.5-0.5-3-1-4.4-1.5c-0.5-0.2-1.1-0.4-1.6-0.6c0,0,0.1,0,0.1-0.1c0.5-0.4,1-0.7,1.6-1.1c0.5-0.4,1-0.7,1.5-1.1
	c0,0-0.1,0.1-0.1,0.1c0.7-0.5,1.5-1.1,2.2-1.6c0.8-0.6,1.6-1.1,2.4-1.7c0.7-0.5,1.5-1.1,2.2-1.6c0.6-0.4,1.1-0.8,1.7-1.2
	c-0.1,0.4-0.3,0.8-0.4,1.2c0,0.1-0.1,0.1-0.1,0.2c-0.2,0.3-0.4,0.6-0.6,0.9c-0.3,0.4-0.3,1.1-0.2,1.6c0.1,0.5,0.5,0.9,0.9,1.2
	c0.5,0.3,1,0.3,1.6,0.2c0.2-0.1,0.3-0.1,0.5-0.2c0.3-0.2,0.5-0.4,0.7-0.7c0.2-0.3,0.4-0.5,0.6-0.8c0.1-0.1,0.1-0.2,0.2-0.4
	c0.2-0.4,0.3-0.8,0.5-1.1c0.2-0.5,0.4-1.1,0.6-1.6c0.3-0.7,0.6-1.3,1-2c0.1-0.2,0.2-0.5,0.3-0.7c0.1,0.1,0.2,0.3,0.3,0.4
	c0.2,0.3,0.4,0.6,0.6,0.9c0.2,0.3,0.4,0.6,0.6,0.9c0.4,0.6,0.7,1.2,1.1,1.7c0.5,0.8,1.1,1.5,1.7,2.3c0.3,0.4,0.9,0.6,1.4,0.6
	c0.5,0,1-0.2,1.4-0.6c0.4-0.4,0.6-0.9,0.6-1.4c0-0.2,0-0.4-0.1-0.5c-0.1-0.3-0.3-0.6-0.5-0.9c-0.2-0.2-0.3-0.4-0.5-0.6
	c-0.5-0.7-1-1.5-1.5-2.2c0.6,0.2,1.2,0.5,1.9,0.7c0.7,0.3,1.3,0.6,1.9,0.9c0.9,0.5,1.8,0.8,2.7,1.2c-0.1,0-0.1-0.1-0.2-0.1
	c0.6,0.2,1.1,0.5,1.7,0.7c0.4,0.2,0.9,0.4,1.3,0.6c0.7,0.3,1.3,0.6,2,0.8c1,0.4,2,1,3,1.5c0.3,0.1,0.6,0.3,0.8,0.4
	c-0.1,0.1-0.3,0.2-0.4,0.3c-1.2,0.8-2.5,1.5-3.8,2.2c-1.3,0.8-2.6,1.6-4,2.2c-0.5,0.2-1.1,0.5-1.6,0.8c-0.3,0.2-0.6,0.4-0.9,0.5
	c-0.7,0.4-1.3,0.7-2,1c-0.6,0.3-1.3,0.7-1.9,1c-0.6,0.3-1.2,0.6-1.9,0.9c-0.3,0.1-0.7,0.3-1,0.4C54.1,52.1,53.9,52.2,53.6,52.2z
	 M73.7,46.4c-0.1,0.9-0.2,1.9-0.2,2.8c-0.2,1.9-0.1,3.8-0.1,5.7c0,2.1,0,4.2,0,6.3c0,1.1-0.1,2.1-0.2,3.2c0,1,0,2,0,3
	c0,1.6,0,3.2,0,4.7c-0.7,0.4-1.4,0.8-2.1,1.2c-0.7,0.4-1.5,0.9-2.2,1.4c-0.5,0.3-0.9,0.5-1.4,0.8c-0.5,0.3-1,0.6-1.5,0.8
	c-0.5,0.3-1,0.6-1.4,0.9c-0.5,0.3-1,0.6-1.5,0.9c-1,0.6-2,1.2-3,1.7c-0.5,0.3-1,0.6-1.5,0.9c-0.5,0.3-1,0.5-1.5,0.8
	c-0.6,0.3-1.2,0.5-1.8,0.8c-0.1,0.1-0.3,0.2-0.4,0.2c0,0,0,0,0,0c0-0.4,0-0.7,0-1.1c0-0.7,0-1.5,0-2.2c0-1.5,0-2.9,0-4.4
	c0-3.1,0-6.1,0-9.2c0-1.8,0-3.6,0-5.4c0-0.9,0-1.8,0-2.7c0-0.8-0.1-1.6-0.1-2.5c0.1,0,0.3-0.1,0.4-0.1c0.6-0.1,1.3-0.4,1.9-0.7
	c0.7-0.3,1.4-0.7,2.1-1c0.7-0.3,1.3-0.7,2-1c0.6-0.3,1.3-0.6,1.9-1c0.4-0.2,0.7-0.4,1.1-0.6c0.5-0.3,1.1-0.6,1.7-0.8
	c0.7-0.3,1.4-0.7,2-1.1c0.7-0.4,1.4-0.8,2.1-1.2c0.6-0.4,1.3-0.7,1.9-1.1c0.7-0.4,1.3-0.8,2-1.2c0,0,0,0,0,0
	C73.8,45.5,73.7,46,73.7,46.4z M75.9,40.3c-0.2-0.1-0.4-0.2-0.5-0.3c-0.4-0.2-0.9-0.5-1.4-0.7c-0.8-0.4-1.6-0.8-2.5-1.2
	c-1-0.5-1.9-0.9-2.9-1.3c-0.5-0.2-1-0.5-1.5-0.7c-0.7-0.3-1.3-0.6-2-0.8c0.1,0,0.1,0,0.2,0.1c-0.7-0.3-1.3-0.6-2-0.8
	c-0.6-0.3-1.2-0.6-1.7-0.9c-0.8-0.4-1.5-0.7-2.3-1c-0.6-0.2-1.3-0.5-1.9-0.7c0,0,0,0,0,0c0.2-0.1,0.4-0.2,0.6-0.3
	c0.8-0.4,1.6-0.9,2.3-1.4c1.5-0.9,2.8-2.4,3.3-4.1c0.8-0.4,1.5-0.8,2.2-1.3c1.2-0.8,2.4-1.4,3.6-2.1c0.5,0.2,1,0.4,1.5,0.6
	c0.5,0.2,1,0.4,1.6,0.6c1.3,0.6,2.5,1.2,3.8,1.8c0.7,0.3,1.4,0.7,2,1c0.3,0.1,0.6,0.3,0.8,0.5c0.4,0.2,0.8,0.4,1.2,0.6
	c0.6,0.3,1.2,0.7,1.8,1c0.6,0.4,1.3,0.8,1.9,1.2c0.6,0.4,1.2,0.8,1.8,1.2c0.6,0.4,1.2,0.6,1.7,1c0,0.1,0.1,0.2,0.1,0.4
	c0,0.1,0,0.3,0,0.4c-0.3,0.2-0.7,0.4-1,0.6c-0.3,0.2-0.6,0.4-0.9,0.6c-0.6,0.4-1.2,0.8-1.8,1.1c-0.3,0.2-0.6,0.4-0.8,0.6
	c-0.3,0.2-0.7,0.4-1,0.6c-0.7,0.4-1.3,0.8-2,1.2c-0.4,0.2-0.7,0.4-1.1,0.6c-0.6,0.3-1.1,0.7-1.7,1.1C76.9,39.7,76.4,40,75.9,40.3z
	 M87.7,44.7c0,0.8-0.1,1.6-0.1,2.4c0,1.7,0.1,3.4,0,5.1c-0.1,0.9-0.1,1.9-0.1,2.8c0,0.4,0,0.9,0,1.3c0,0.4-0.1,0.9-0.1,1.4
	c-0.1,1.7-0.2,3.4-0.4,5.2c0,0.3-0.1,0.5-0.1,0.7c-0.1,0.4-0.2,0.8-0.3,1.1c0,0,0,0.1-0.1,0.1c0,0,0,0-0.1,0.1
	c-0.3,0.2-0.7,0.4-1,0.5c-0.4,0.2-0.8,0.4-1.1,0.6c-0.7,0.3-1.4,0.7-2.1,1.1c-1.5,0.8-3,1.6-4.4,2.4c-0.2,0.1-0.4,0.2-0.6,0.4
	c0,0,0,0,0-0.1c0-2,0-4,0.1-6c0-0.5,0.1-1,0.1-1.4c0-0.6,0.1-1.1,0.1-1.7c0-1.1,0-2.1,0-3.2c0-2,0-4,0-6c0-1.9,0.2-3.7,0.4-5.6
	c0-0.5,0-1,0-1.5c0-0.6-0.1-1.1-0.2-1.7c0.1,0,0.1-0.1,0.2-0.1c0.4-0.3,0.9-0.5,1.3-0.8c0.4-0.2,0.7-0.5,1.1-0.7
	c0.4-0.2,0.8-0.4,1.2-0.6c0.9-0.5,1.8-1.1,2.7-1.6c0.4-0.3,0.8-0.6,1.2-0.8c0.4-0.3,0.8-0.5,1.2-0.8c0.4-0.3,0.8-0.5,1.3-0.8
	c0,0,0,0,0,0c0,0.3,0,0.6,0,0.8c0,1.7,0,3.3,0,5C87.8,43.1,87.8,43.9,87.7,44.7z"/>
</svg>
